"","District","Subcounty","ElderlyFlood","Elderly Flood Score"
"237","KATAKWI","KATAKWI",2940,42.5
"81","KALUNGU","BUKULULA",2862,41.65
"243","KAYUNGA","KAYONZA",2842.5,40.8
"229","MUKONO","KASAWO",2766,39.95
"178","GOMBA","KABULASOKE",2656.5,39.1
"278","LWENGO","KISEKKA",2634,38.25
"276","KIRYANDONGO","KIRYANDONGO",2613,37.4
"296","LWENGO","KKINGO",2595,36.55
"36","APAC","APAC",2563.5,35.7
"288","KAYUNGA","KITIMBWA",2499,34.85
"244","KAYUNGA","KAYUNGA",2460,34
"52","BUKOMANSIMBI","BIGASA",2313,33.15
"545","LUWERO","ZIROBWE",2179.5,32.3
"153","SOROTI","GWERI",2166,31.45
"526","MUKONO","SEETA NAMUGANGA",2161.5,30.6
"49","KAMULI","BALAWOLI",2118,29.75
"162","NAPAK","IRIIRI",2116.5,28.9
"5","KOLE","ABOKE",2099,28.05
"177","MASAKA","KABONERA",2053.5,27.2
"72","HOIMA","BUHIMBA",1998,26.35
"538","KATAKWI","USUK",1972.5,25.5
"159","APAC","IBUJE",1890,24.65
"322","AMURU","LAMOGI",1887,23.8
"185","BUYENDE","KAGULU",1885,22.95
"437","MPIGI","NKOZI",1879.5,22.1
"180","HOIMA","KABWOYA",1839,21.25
"363","BUKEDEA","MALERA",1797,20.4
"452","RUKUNGIRI","NYARUSHANJE",1789,19.55
"26","NWOYA","ALERO",1783.5,18.7
"238","SERERE","KATETA",1753,17.85
"47","KOLE","AYER",1713,17
"312","SERERE","KYERE",1707,16.15
"481","AMURU","PABO",1701,15.3
"220","BUGIRI","KAPYANGA",1672,14.45
"383","KUMI","MUKONGORO",1666,13.6
"341","OYAM","LORO",1664,12.75
"28","KOLE","ALITO",1648,11.9
"408","NAKAPIRIPIRIT","NAMALU",1635,11.05
"472","KUMI","ONGINO",1633,10.2
"120","MPIGI","BUWAMA",1609,9.35
"385","TORORO","MULANDA",1579,8.5
"267","LUWERO","KIKYUSA",1575,7.65
"125","RUKUNGIRI","BUYANJA",1559,6.8
"68","KYENJOJO","BUGAAKI",1557,5.95
"285","BUKOMANSIMBI","KITANDA",1543.5,5.1
"497","PAKWACH","PANYANGO",1534,4.25
"240","SOROTI","KATINE",1518,3.4
"308","HOIMA","KYANGWALI",1513,2.55
"358","NAMUTUMBA","MAGADA",1512,1.7
"295","HOIMA","KIZIRANFUMBI",1497,0.85
