"","District","Subcounty","Food InsecureHailstorms","Food Insecure Hailstorms Score"
"500","BUIKWE","NJERU DIVISION",1102.5,42.5
"402","JINJA","MAFUBIRA",986,41.65
"256","KAYUNGA","KANGULUMIRA",946.5,40.8
"13","BUKOMANSIMBI","BIGASA",902,39.95
"529","MASAKA","NYENDO-SSENYANGE DIVISION",901,39.1
"422","SSEMBABULE","MATEETE",859.5,38.25
"472","MUKONO","NAKISUNGA",838.5,37.4
"391","SSEMBABULE","LWEBITAKULI",833.5,36.55
"117","MITYANA","BUSIMBI DIVISION",830,35.7
"138","BUKOMANSIMBI","BUTENGA",784.5,34.85
"510","MUKONO","NTENJERU",783.5,34
"44","JINJA","BUGEMBE TOWN COUNCIL",766.5,33.15
"75","KALUNGU","BUKULULA",733,32.3
"393","LWENGO","LWENGO",719.5,31.45
"504","MPIGI","NKOZI",717.5,30.6
"231","MBARARA","KAKOBA DIVISION",678,29.75
"530","BUIKWE","NYENGA DIVISION",664,28.9
"346","MUBENDE","KITENGA",662,28.05
"293","KAYUNGA","KAYUNGA",648,27.2
"401","GOMBA","MADDU",639,26.35
"307","BUKOMANSIMBI","KIBINGE",636,25.5
"283","MUBENDE","KASSANDA",626.5,24.65
"598","BUIKWE","WAKISI DIVISION",623.5,23.8
"594","ARUA","URIAMA",616.5,22.95
"241","KALUNGU","KALUNGU",605.5,22.1
"324","ISINGIRO","KIKAGATE",590.5,21.25
"356","LWENGO","KKINGO",585,20.4
"417","JINJA","MASESE WALUKUBA",583,19.55
"368","MASAKA","KYANAMUKAAKA",581,18.7
"380","KALUNGU","LUKAYA TOWN COUNCIL",580.5,17.85
"450","MASAKA","MUKUNGWE",580,17
"154","MASAKA","BUWUNGA",571.5,16.15
"467","BUIKWE","NAJJEMBE DIVISION",571.5,16.15
"410","MAYUGE","MALONGO",571,14.45
"337","LWENGO","KISEKKA",567.5,13.6
"210","GOMBA","KABULASOKE",564.5,12.75
"409","LWENGO","MALONGO",558,11.9
"412","ARUA","MANIBE",554,11.05
"98","MBALE","BUNGOKHO MUTOTO",553.5,10.2
"491","KAYUNGA","NAZIGO",548.5,9.35
"329","MASAKA","KIMAANYA-KYABAKUZA DIVISION",544,8.5
"379","SSEMBABULE","LUGUSULU",543,7.65
"290","BUIKWE","KAWOLO DIVISION",537,6.8
"316","MUBENDE","KIGANDA",527,5.95
"294","KAYUNGA","KAYUNGA TOWN COUNCIL",515,5.1
"344","BUKOMANSIMBI","KITANDA",509.5,4.25
"193","MBALE","INDUSTRIAL DIVISON",503.5,3.4
"349","MUBENDE","KITUMBI",501.5,2.55
"466","BUIKWE","NAJJA",500,1.7
"506","MBALE","NORTHERN DIVISION",496,0.85
