"","District","Subcounty","Food InsecureWindstorm","Food Insecure Windstorm Score"
"547","MOROTO","NADUNGET",5027,42.5
"444","WAKISO","KYENGERA TOWN COUNCIL",4366,41.65
"680","MOROTO","RUPA",3390,40.8
"224","NAPAK","IRIIRI",3131,39.95
"264","WAKISO","KAJJANSI TOWN COUNCIL",3012,39.1
"495","NAPAK","MATANY",2817,38.25
"450","NAPAK","LOKOPO",2591,37.4
"451","NAKAPIRIPIRIT","LOLACHAT",2289,36.55
"8","AMURU","AMURU",2255,35.7
"435","HOIMA","KYANGWALI",2062,34.85
"585","NAPAK","NGOLERIET",2055,34
"337","WAKISO","KATABI TOWN COUNCIL",2003,33.15
"540","NAKAPIRIPIRIT","NABILATUK",1990,32.3
"3","NWOYA","ALERO",1816,31.45
"467","SSEMBABULE","LWEBITAKULI",1667,30.6
"338","KATAKWI","KATAKWI",1639,29.75
"560","NAKAPIRIPIRIT","NAMALU",1631,28.9
"481","KATAKWI","MAGORO",1466,28.05
"469","LWENGO","LWENGO",1439,27.2
"166","MPIGI","BUWAMA",1412,26.35
"270","MBARARA","KAKOBA DIVISION",1356,25.5
"405","MUBENDE","KITENGA",1324,24.65
"476","GOMBA","MADDU",1278,23.8
"285","MPIGI","KAMMENGO",1240,22.95
"458","NAPAK","LOTOME",1239,22.1
"724","KATAKWI","USUK",1236,21.25
"420","NEBBI","KUCWINY",1216,20.4
"717","MOROTO","TAPAC",1211,19.55
"637","KATAKWI","ONGONGOJA",1200,18.7
"378","ISINGIRO","KIKAGATE",1181,17.85
"624","KASESE","NYAMWAMBA DIVISION",1174,17
"533","KISORO","MURAMBA",1167,16.15
"650","NWOYA","PURONGO",1154,15.3
"395","LWENGO","KISEKKA",1135,14.45
"487","LWENGO","MALONGO",1116,13.6
"124","MBALE","BUNGOKHO MUTOTO",1107,12.75
"247","HOIMA","KABWOYA",1076,11.9
"370","MUBENDE","KIGANDA",1054,11.05
"321","MUBENDE","KASAMBYA",1017,10.2
"223","MBALE","INDUSTRIAL DIVISON",1007,9.35
"410","MUBENDE","KITUMBI",1003,8.5
"511","MPIGI","MPIGI TOWN COUNCIL",1000,7.65
"5","AMUDAT","AMUDAT",996,6.8
"593","MBALE","NORTHERN DIVISION",992,5.95
"453","NAPAK","LOPEEI",983,5.1
"312","AMUDAT","KARITA",981,4.25
"446","SERERE","KYERE",980,3.4
"275","RAKAI","KAKUUTO",975,2.55
"636","KUMI","ONGINO",968,1.7
"628","KISORO","NYARUSIZA",964,0.85
