"","District","Subcounty","NDVI Area Km2Landslide","NDVI Area Km2 Landslide Score"
"156","KAABONG","LOYORO",736,42.5
"128","RUBIRIZI","KICHWAMBA",443.5,41.65
"167","NAKAPIRIPIRIT","MORUITA",419,40.8
"164","NAPAK","MATANY",393,39.95
"153","KASESE","LAKE KATWE",381.5,39.1
"110","AMUDAT","KARITA",359,38.25
"203","KOTIDO","PANYANGARA",358,37.4
"187","KWEEN","NGENGE",293.5,36.55
"87","NAPAK","IRIIRI",274,35.7
"171","KASESE","MUHOKYA",269.5,34.85
"120","MOROTO","KATIKEKILE",267.5,34
"1","AMUDAT","AMUDAT",247.5,33.15
"123","KANUNGU","KAYONZA",236,32.3
"181","NAKAPIRIPIRIT","NAMALU",229,31.45
"155","NAPAK","LOTOME",223.5,30.6
"49","BULAMBULI","BUNAMBUTYE",212.5,29.75
"151","KASESE","KYARUMBA",205,28.9
"16","KASESE","BUGOYE",195,28.05
"152","KASESE","KYONDO",180.5,27.2
"194","KASESE","NYAKIYUMBU",164.5,26.35
"161","KASESE","MALIBA",152.5,25.5
"82","RUBANDA","HAMURWA",151,24.65
"154","NAKAPIRIPIRIT","LOREGAE",142.5,23.8
"204","BUKWO","RIWO",130,22.95
"86","RUBANDA","IKUMBA",125.5,22.1
"229","MOROTO","TAPAC",123.5,21.25
"172","RUBANDA","MUKO",123,20.4
"93","NAKAPIRIPIRIT","KAKOMONGOLE",117,19.55
"208","KISORO","RUBUGURI TOWN COUNCIL",113.5,18.7
"223","BUNDIBUGYO","SINDILA",113,17.85
"71","BULAMBULI","BWIKHONGE",109.5,17
"113","KABAROLE","KASENDA",107.5,16.15
"84","BUNDIBUGYO","HARUGALE",103,15.3
"3","KWEEN","BENET",102,14.45
"51","MBALE","BUNGOKHO",99,13.6
"90","BUNYANGABU","KABONERO",98.5,12.75
"129","KABAROLE","KICWAMBA",98,11.9
"234","KAPCHORWA","WESTERN DIVISION",96,11.05
"212","MOROTO","RUPA",93.5,10.2
"130","KASESE","KILEMBE",92,9.35
"132","KWEEN","KIRIKI",91.5,8.5
"213","KABAROLE","RUTEETE",91,7.65
"44","BULAMBULI","BUMASOBO",90.5,6.8
"228","BUKWO","SUAM",89,5.95
"57","KISORO","BUSANZA",88.5,5.1
"7","BUDUDA","BUBIITA",84,4.25
"145","KWEEN","KWOSIR",83,3.4
"205","RUBANDA","RUBANDA TOWN COUNCIL",83,3.4
"21","BUDUDA","BUKALASI",81.5,1.7
"77","BUKWO","CHEPKWASTA",81.5,1.7
