"","District","Subcounty","Poor Access to HealthcareLightning","Poor Access to Healthcare Lightning Score"
"58","BUGIRI","BULUGUYI",5040,25
"165","HOIMA","KYANGWALI",3959,24.5
"166","KYENJOJO","KYARUSOZI",3825.5,24
"115","HOIMA","KABWOYA",3358.5,23.5
"34","MITOOMA","BITEREKO",3043.5,23
"50","KALANGALA","BUJUMBA",3000,22.5
"140","KANUNGU","KAYONZA",2998.5,22
"238","BUSHENYI","NYABUBARE",2916,21.5
"250","TORORO","OSUKURU",2718,21
"28","KOLE","BALA",2663,20.5
"147","KIRYANDONGO","KIRYANDONGO",2408,20
"196","BUSIA","MASAFU",2332.5,19.5
"195","BUSIA","MASABA",2305.5,19
"254","AMURU","PABO",2249,18.5
"139","KYENJOJO","KATOOKE",2225.5,18
"11","NWOYA","ALERO",2108,17.5
"12","KOLE","ALITO",2083.5,17
"44","RUKUNGIRI","BUGANGARI",2055,16.5
"86","RUKUNGIRI","BWAMBARA",1989,16
"207","TORORO","MULANDA",1959,15.5
"154","MITOOMA","KIYANGA",1947,15
"118","KAKUMIRO","KAKINDO",1922.5,14.5
"30","LIRA","BARR",1895.5,14
"259","MASINDI","PAKANYI",1770.5,13.5
"158","MUKONO","KOOME ISLAND",1750.5,13
"125","MITOOMA","KANYABWANGA",1719,12.5
"14","AMURU","AMURU",1703.5,12
"156","NWOYA","KOCH-GOMA",1622,11.5
"162","BUSHENYI","KYAMUHUNGA",1581,11
"168","SERERE","KYERE",1566.5,10.5
"82","BUSIA","BUYANGA",1539,10
"149","KAKUMIRO","KISIITA",1532.5,9.5
"120","KANUNGU","KAMBUGA",1497,9
"202","MITOOMA","MITOOMA",1495.5,8.5
"271","NWOYA","PURONGO",1488.5,8
"25","AMURU","ATTIAK",1466,7.5
"182","OYAM","LORO",1445.5,7
"187","BUVUMA","LYABAANA",1440,6.5
"137","SERERE","KATETA",1423.5,6
"87","MASINDI","BWIJANGA",1413.5,5.5
"35","BUSHENYI","BITOOMA",1401,5
"1","KOLE","ABOKE",1386.5,4.5
"105","OYAM","ICEME",1382.5,4
"39","MASINDI","BUDONGO",1378.5,3.5
"110","TORORO","IYOLWA",1372.5,3
"126","KANUNGU","KANYANTOROGO",1347,2.5
"42","KYENJOJO","BUGAAKI",1337,2
"175","AMURU","LAMOGI",1328,1.5
"54","NAMUTUMBA","BULANGE",1315,1
"22","SOROTI","ASURET",1311,0.5
