"","District","Subcounty","Poor Access to EducationFlood","Poor Access to Education Flood Score"
"162","NAPAK","IRIIRI",5125.5,20
"308","HOIMA","KYANGWALI",4858,19.6
"180","HOIMA","KABWOYA",4857,19.2
"481","AMURU","PABO",4747.5,18.8
"221","AMUDAT","KARITA",4135.5,18.4
"276","KIRYANDONGO","KIRYANDONGO",3601.5,18
"31","AMURU","AMURU",3595.5,17.6
"26","NWOYA","ALERO",3514.5,17.2
"505","NWOYA","PURONGO",3018,16.8
"44","AMURU","ATTIAK",2821.5,16.4
"434","KAMWENGE","NKOMA",2634,16
"322","AMURU","LAMOGI",2595,15.6
"185","BUYENDE","KAGULU",2355,15.2
"319","KASESE","LAKE KATWE",2142,14.8
"376","NAKAPIRIPIRIT","MORUITA",2101.5,14.4
"188","KAKUMIRO","KAKINDO",1927.5,14
"435","BUYENDE","NKONDO",1842,13.6
"67","KYENJOJO","BUFUNJO",1814,13.2
"243","KAYUNGA","KAYONZA",1732.5,12.8
"155","KYEGEGWA","HAPUUYO",1725,12.4
"49","KAMULI","BALAWOLI",1714.5,12
"386","KIRYANDONGO","MUTUNDA",1682,11.6
"333","NAPAK","LOKOPO",1666.5,11.2
"299","YUMBE","KOCHI",1640,10.8
"335","NAKAPIRIPIRIT","LOLACHAT",1629,10.4
"255","KABAROLE","KICWAMBA",1526,10
"345","SSEMBABULE","LUGUSULU",1497,9.6
"337","NAPAK","LOPEEI",1494,9.2
"178","GOMBA","KABULASOKE",1476,8.8
"295","HOIMA","KIZIRANFUMBI",1459.5,8.4
"449","KIBAALE","NYAMARUNDA",1443,8
"446","KAMWENGE","NYABBANI",1378,7.6
"154","KABAROLE","HAKIBAALE",1368,7.2
"60","KIBAALE","BUBANGO",1358,6.8
"40","YUMBE","ARIWA",1347,6.4
"511","YUMBE","ROMOGI",1342,6
"36","APAC","APAC",1329,5.6
"427","KWEEN","NGENGE",1305,5.2
"293","MITOOMA","KIYANGA",1291,4.8
"408","NAKAPIRIPIRIT","NAMALU",1290,4.4
"64","MASINDI","BUDONGO",1268,4
"264","KIRUHURA","KIKAATSI",1262,3.6
"487","MASINDI","PAKANYI",1259,3.2
"375","OYAM","MINAKULU",1256,2.8
"361","KAMWENGE","MAHYORO",1247,2.4
"438","KIRUHURA","NKUNGU",1243.5,2
"74","KALIRO","BUKAMBA",1226,1.6
"251","MUBENDE","KIBALINGA",1207,1.2
"204","LUWERO","KAMIRA",1192.5,0.8
"196","NAKASONGOLA","KALONGO",1180.5,0.4
