"","District","Subcounty","Poor Access to HealthcareLandslide","Poor Access to Healthcare Landslide Score"
"87","NAPAK","IRIIRI",2045,25
"174","KASESE","MUNKUNYU",1723.5,24.5
"1","AMUDAT","AMUDAT",1711,24
"110","AMUDAT","KARITA",1682,23.5
"128","KABAROLE","KICWAMBA",1574,23
"180","NAKAPIRIPIRIT","NAMALU",1180,22.5
"228","MOROTO","TAPAC",1157.5,22
"175","KISORO","MURAMBA",1151,21.5
"117","RUBIRIZI","KATANDA",1150,21
"70","KASESE","BWESUMBU",1090.5,20.5
"160","KASESE","MALIBA",1021.5,20
"123","KANUNGU","KAYONZA",999.5,19.5
"171","RUBANDA","MUKO",993,19
"150","KASESE","KYARUMBA",935,18.5
"152","KASESE","LAKE KATWE",907.5,18
"192","RUKUNGIRI","NYAKISHENYI",903.5,17.5
"124","NTUNGAMO","KAYONZA",876.5,17
"211","MOROTO","RUPA",863.5,16.5
"205","KABALE","RUBAYA",818,16
"166","NAKAPIRIPIRIT","MORUITA",798,15.5
"17","KABALE","BUHARA",786,15
"208","NTUNGAMO","RUGARAMA",773.5,14.5
"115","RUKIGA","KASHAMBYA",767,14
"24","MBALE","BUKIENDE",752,13.5
"153","NAKAPIRIPIRIT","LOREGAE",723.5,13
"20","KASESE","BUHUHIRA",704.5,12.5
"163","NAPAK","MATANY",691,12
"189","KISORO","NYABWISHENYA",685.5,11.5
"135","KISORO","KIRUNDO",683,11
"186","KWEEN","NGENGE",677,10.5
"13","RUBANDA","BUFUNDI",672.5,10
"136","KASESE","KISINGA",661,9.5
"82","RUBANDA","HAMURWA",626,9
"200","KISORO","NYUNDO",624.5,8.5
"6","RUBANDA","BUBAARE",618,8
"27","NAMISINDWA","BUKOKHO",618,8
"60","BUDUDA","BUSHIYI",613.5,7
"151","KASESE","KYONDO",589.5,6.5
"213","KANUNGU","RUTENGA",582.5,6
"16","KASESE","BUGOYE",576,5.5
"113","KABAROLE","KASENDA",572.5,5
"129","KASESE","KILEMBE",560.5,4.5
"59","BUDUDA","BUSHIKA",539,4
"146","BUSHENYI","KYAMUHUNGA",527,3.5
"209","RUBANDA","RUHIJA",518.5,3
"111","NTOROKO","KARUGUTU",505.5,2.5
"197","RUKUNGIRI","NYARUSHANJE",490,2
"201","KATAKWI","PALAM",482,1.5
"231","MBALE","WANALE",482,1.5
"145","KASESE","KYABARUNGIRA",478.5,0.5
