"","District","Subcounty","Poor Access to EducationDrought","Poor Access to Education Drought Score"
"23","AMUDAT","AMUDAT",4497,20
"103","KOTIDO","KACHERI",3274.5,19.6
"181","AMUDAT","LOROO",2448,19.2
"156","HOIMA","KYANGWALI",2429,18.8
"193","NAKAPIRIPIRIT","MORUITA",2101.5,18.4
"299","MOROTO","TAPAC",1954,18
"191","NAPAK","MATANY",1885.5,17.6
"251","KITGUM","OROM",1827,17.2
"94","NAPAK","IRIIRI",1708.5,16.8
"173","NAPAK","LOKOPO",1666.5,16.4
"175","NAKAPIRIPIRIT","LOLACHAT",1629,16
"102","HOIMA","KABWOYA",1619,15.6
"255","AMURU","PABO",1582.5,15.2
"177","NAPAK","LOPEEI",1494,14.8
"127","AMUDAT","KARITA",1378.5,14.4
"291","MOROTO","RUPA",1290,14
"286","KOTIDO","RENGEN",1275,13.6
"142","KIRYANDONGO","KIRYANDONGO",1200.5,13.2
"28","AMURU","AMURU",1198.5,12.8
"19","NWOYA","ALERO",1171.5,12.4
"116","KOTIDO","KAPADAKOOK DIVISION",1104,12
"285","NWOYA","PURONGO",1006,11.6
"38","AMURU","ATTIAK",940.5,11.2
"138","HOIMA","KIGOROBYA",857.5,10.8
"132","MOROTO","KATIKEKILE",838,10.4
"146","YUMBE","KOCHI",820,10
"72","HOIMA","BUSERUKA",784.5,9.6
"145","NWOYA","KOCH-GOMA",777,9.2
"113","KOTIDO","KANAWAT DIVISION",738,8.8
"208","MOROTO","NADUNGET",711,8.4
"110","KAABONG","KAMION",672,8
"290","YUMBE","ROMOGI",671,7.6
"107","KAABONG","KALAPATA",645,7.2
"47","MASINDI","BUDONGO",634,6.8
"265","MASINDI","PAKANYI",629.5,6.4
"276","KOTIDO","PANYANGARA",625.5,6
"223","NAPAK","NGOLERIET",625,5.6
"240","ARUA","OKOLLO",611.5,5.2
"179","NAPAK","LORENGECORA",609.5,4.8
"87","ADJUMANI","DZAIPI",601.5,4.4
"136","YUMBE","KERWA",588.5,4
"131","KAABONG","KATHILE",564,3.6
"247","ALEBTONG","OMORO",561,3.2
"239","OTUKE","OGWETTE",485.5,2.8
"266","ADJUMANI","PAKELE",468.5,2.4
"35","YUMBE","ARIWA",449,2
"24","AMUDAT","AMUDAT TOWN COUNCIL",442.5,1.6
"222","KWEEN","NGENGE",435,1.2
"199","KAGADI","MPEEFU",433,0.8
"214","NAKAPIRIPIRIT","NAMALU",430,0.4
