"","District","Subcounty","PropertyStorm","Property Storm Score"
"11","GULU","BAR-DEGE",1020,25
"21","MBALE","BUSIU TOWN COUNCIL",907,24.5
"84","NTUNGAMO","RUKONI EAST",615,24
"31","ZOMBO","JONGAKORO",577,23.5
"23","SIRONKO","BUTANDIGA",445,23
"65","BULAMBULI","MUYEMBE",437,22.5
"56","AMURU","LAMOGI",300,22
"14","KALANGALA","BUJJUMBA",280,21.5
"89","NEBBI","THATHA DIVISION",156,21
"8","KOLE","ALITO",154,20.5
"76","PALLISA","OLOK",150,20
"48","KASESE","KISINGA",135,19.5
"40","KAPCHORWA","KAPTANYA",106,19
"33","KOTIDO","KACHERI",80,18.5
"34","MBARARA","KAGONGI",75,18
"59","MAYUGE","MAGAMAGA TOWN COUNCIL",65,17.5
"22","BUTALEJA","BUSOLWE",64,17
"63","SSEMBABULE","MATEETE  TOWN COUNCIL",64,17
"86","MUKONO","SEETA NAMUGANGA",61,16
"16","MUBENDE","BUKUYA",60,15.5
"19","BUNDIBUGYO","BURONDO",58,15
"68","WAKISO","NAMUGONGO DIVISION",57,14.5
"9","LIRA","AROMO",55,14
"70","KAYUNGA","NAZIGO",52,13.5
"25","BUKOMANSIMBI","BUTENGA",49,13
"47","BULIISA","KIGWERA",49,13
"17","BUGIRI","BULESA",48,12
"54","HOIMA","KYANGWALI",43,11.5
"35","NAKASONGOLA","KALUNGI",40,11
"55","LWENGO","KYAZANGA TOWN COUNCIL",40,11
"85","KABAROLE","RUTEETE",40,11
"12","KIBAALE","BUBANGO",33,9.5
"30","LUUKA","IKUMBYA",29,9
"39","KIBOGA","KAPEKE",25,8.5
"61","LUWERO","MAKULUBITA",23,8
"49","MPIGI","KITUNTU",19,7.5
"82","RAKAI","RAKAI TOWN COUNCIL",19,7.5
"50","MITOOMA","KIYANGA",17,6.5
"66","IGANGA","NAKALAMA",15,6
"73","KYENJOJO","NYANTUNGO",14,5.5
"29","KAMPALA","CENTRAL",13,5
"46","NAMUTUMBA","KIBALE",6,4.5
"43","KIRUHURA","KAZO",5,4
"80","TORORO","PAYA",5,4
"53","BUSHENYI","KYAMUHUNGA TOWN COUNCIL",4,3
"75","ARUA","OLI RIVER",4,3
"83","ISINGIRO","RUGAAGA",4,3
"15","MASAKA","BUKAKATA",1,1.5
"24","KAMULI","BUTANSI",1,1.5
"38","NAKASEKE","KAPEEKA",1,1.5
