"","District","Subcounty","Slope Area Km2Flood","Slope Area Km2 Flood Score"
"203","KAABONG","KAMION",311.91345,42.5
"377","NAKAPIRIPIRIT","MORUITA",308.60865,41.65
"365","KASESE","MALIBA",149.994,40.8
"162","NAPAK","IRIIRI",145.75005,39.95
"25","ABIM","ALEREK",145.09395,39.1
"448","ABIM","NYAKWAE",137.322,38.25
"242","KAABONG","KAWALAKOL",122.1354,37.4
"476","KITGUM","OROM",115.8255,36.55
"345","KAABONG","LOYORO",95.8482,35.7
"532","MOROTO","TAPAC",89.52705,34.85
"16","LAMWO","AGORO",83.34675,34
"154","KABAROLE","HAKIBAALE",78.0156,33.15
"190","NAKAPIRIPIRIT","KAKOMONGOLE",76.3641,32.3
"180","HOIMA","KABWOYA",74.736,31.45
"453","RUKUNGIRI","NYARUSHANJE",71.2845,30.6
"103","KAMWENGE","BUSIRIBA",66.87,29.75
"308","HOIMA","KYANGWALI",63.3033,28.9
"315","KASESE","KYONDO",61.9353,28.05
"311","KASESE","KYARUMBA",60.62715,27.2
"130","RUKUNGIRI","BWAMBARA",60.6159,26.35
"409","NAKAPIRIPIRIT","NAMALU",59.0139,25.5
"520","KABAROLE","RUTEETE",56.5182,24.65
"155","KYEGEGWA","HAPUUYO",53.8074,23.8
"64","MASINDI","BUDONGO",53.4663,22.95
"320","KASESE","LAKE KATWE",52.6662,22.1
"230","KABAROLE","KASENDA",52.038,21.25
"60","KIBAALE","BUBANGO",51.6573,20.4
"518","MOROTO","RUPA",50.4936,19.55
"331","KAABONG","LODIKO",49.4667,18.7
"231","RUKIGA","KASHAMBYA",47.4066,17.85
"293","MITOOMA","KIYANGA",46.9584,17
"67","KYENJOJO","BUFUNJO",43.9812,16.15
"255","KABAROLE","KICWAMBA",41.5584,15.3
"537","ADJUMANI","UKUSIJONI",41.54625,14.45
"482","AMURU","PABO",40.824,13.6
"226","KAKUMIRO","KASAMBYA",39.3507,12.75
"517","IBANDA","RUKIRI",39.0312,11.9
"276","KIRYANDONGO","KIRYANDONGO",38.0565,11.05
"206","KAMWENGE","KAMWENGE",37.6659,10.2
"68","KYENJOJO","BUGAAKI",37.4769,9.35
"19","ARUA","AJIA",35.6049,8.5
"383","KASESE","MUHOKYA",34.8741,7.65
"166","NTUNGAMO","ITOJO",32.9373,6.8
"66","IBANDA","BUFUNDA DIVISION",32.6799,5.95
"522","RUKIGA","RWAMUCUCU",32.5557,5.1
"57","MITOOMA","BITEREKO",32.0022,4.25
"419","KAABONG","NAPORE KARENGA",30.6783,3.4
"329","KAABONG","LOBALANGIT",30.5253,2.55
"45","ZOMBO","ATYAK",29.6766,1.7
"187","ISINGIRO","KAKAMBA",28.7163,0.85
