"","District","Subcounty","Subsistence FarmersFlood","Subsistence Farmers Flood Score"
"276","KIRYANDONGO","KIRYANDONGO",20712,50
"180","HOIMA","KABWOYA",16699.5,49
"308","HOIMA","KYANGWALI",15785,48
"243","KAYUNGA","KAYONZA",15297,47
"481","AMURU","PABO",14175,46
"36","APAC","APAC",13993.5,45
"178","GOMBA","KABULASOKE",13524,44
"52","BUKOMANSIMBI","BIGASA",12291,43
"49","KAMULI","BALAWOLI",12222,42
"185","BUYENDE","KAGULU",12043,41
"322","AMURU","LAMOGI",11881.5,40
"545","LUWERO","ZIROBWE",11832,39
"278","LWENGO","KISEKKA",11428.5,38
"26","NWOYA","ALERO",11259,37
"386","KIRYANDONGO","MUTUNDA",11136,36
"288","KAYUNGA","KITIMBWA",11092.5,35
"487","MASINDI","PAKANYI",11025,34
"159","APAC","IBUJE",10833,33
"31","AMURU","AMURU",10812,32
"153","SOROTI","GWERI",10743,31
"162","NAPAK","IRIIRI",10693.5,30
"188","KAKUMIRO","KAKINDO",10240.5,29
"81","KALUNGU","BUKULULA",10234.5,28
"72","HOIMA","BUHIMBA",10218,27
"220","BUGIRI","KAPYANGA",9688,26
"526","MUKONO","SEETA NAMUGANGA",9672,25
"341","OYAM","LORO",9554,24
"67","KYENJOJO","BUFUNJO",9375,23
"244","KAYUNGA","KAYUNGA",9337.5,22
"295","HOIMA","KIZIRANFUMBI",9318,21
"229","MUKONO","KASAWO",8818.5,20
"437","MPIGI","NKOZI",8745,19
"237","KATAKWI","KATAKWI",8734.5,18
"434","KAMWENGE","NKOMA",8725.5,17
"5","KOLE","ABOKE",8616,16
"155","KYEGEGWA","HAPUUYO",8493,15
"296","LWENGO","KKINGO",8472,14
"267","LUWERO","KIKYUSA",8448,13
"505","NWOYA","PURONGO",8394,12
"44","AMURU","ATTIAK",8229,11
"285","BUKOMANSIMBI","KITANDA",8061,10
"452","RUKUNGIRI","NYARUSHANJE",7858,9
"240","SOROTI","KATINE",7848,8
"238","SERERE","KATETA",7789,7
"259","KIRYANDONGO","KIGUMBA",7711,6
"123","BUGIRI","BUWUNGA",7653,5
"345","SSEMBABULE","LUGUSULU",7650,4
"358","NAMUTUMBA","MAGADA",7601,3
"64","MASINDI","BUDONGO",7528,2
"364","KASESE","MALIBA",7465,1
