"","District","Subcounty","Subsistence FarmersDrought","Subsistence Farmers Drought Score"
"156","HOIMA","KYANGWALI",7892.5,50
"251","KITGUM","OROM",7137,49
"142","KIRYANDONGO","KIRYANDONGO",6904,48
"102","HOIMA","KABWOYA",5566.5,47
"175","NAKAPIRIPIRIT","LOLACHAT",5559,46
"103","KOTIDO","KACHERI",5533.5,45
"265","MASINDI","PAKANYI",5512.5,44
"191","NAPAK","MATANY",5226,43
"286","KOTIDO","RENGEN",5170.5,42
"23","AMUDAT","AMUDAT",5160,41
"207","NAKAPIRIPIRIT","NABILATUK",5143.5,40
"173","NAPAK","LOKOPO",5077.5,39
"138","HOIMA","KIGOROBYA",5012,38
"255","AMURU","PABO",4725,37
"104","BUKEDEA","KACHUMBALA",4400.5,36
"208","MOROTO","NADUNGET",4385,35
"181","AMUDAT","LOROO",4085,34
"247","ALEBTONG","OMORO",4037.5,33
"116","KOTIDO","KAPADAKOOK DIVISION",3981,32
"47","MASINDI","BUDONGO",3764,31
"19","NWOYA","ALERO",3753,30
"199","KAGADI","MPEEFU",3726,29
"189","BUKEDEA","MALERA",3642.5,28
"28","AMURU","AMURU",3604,27
"92","SOROTI","GWERI",3581,26
"94","NAPAK","IRIIRI",3564.5,25
"202","KUMI","MUKONGORO",3447,24
"107","KAABONG","KALAPATA",3331,23
"233","ARUA","ODUPI",3209.5,22
"115","KUMI","KANYUM",3186,21
"145","NWOYA","KOCH-GOMA",3177.5,20
"131","KAABONG","KATHILE",3152,19
"280","NEBBI","PAROMBO",3149,18
"276","KOTIDO","PANYANGARA",3075,17
"33","SOROTI","ARAPAI",3064,16
"249","KUMI","ONGINO",3026,15
"232","YUMBE","ODRAVU",2976.5,14
"129","KATAKWI","KATAKWI",2911.5,13
"150","NEBBI","KUCWINY",2899,12
"21","ALEBTONG","ALOI",2896.5,11
"278","PAKWACH","PANYIMUR",2882.5,10
"193","NAKAPIRIPIRIT","MORUITA",2865,9
"299","MOROTO","TAPAC",2848,8
"285","NWOYA","PURONGO",2798,7
"183","NAPAK","LOTOME",2751,6
"38","AMURU","ATTIAK",2743,5
"113","KOTIDO","KANAWAT DIVISION",2713.5,4
"72","HOIMA","BUSERUKA",2711,3
"147","BUKEDEA","KOLIR",2705,2
"40","ALEBTONG","AWEI",2662.5,1
