"","District","Subcounty","Temporary HousingWindstorm","Temporary Housing Windstorm Score"
"435","HOIMA","KYANGWALI",9205,42.5
"373","HOIMA","KIGOROBYA",7094,41.65
"3","NWOYA","ALERO",7089,40.8
"8","AMURU","AMURU",6669,39.95
"343","SERERE","KATETA",6658,39.1
"224","NAPAK","IRIIRI",6573,38.25
"260","BUYENDE","KAGULU",6436,37.4
"485","BUKEDEA","MALERA",6395,36.55
"547","MOROTO","NADUNGET",5851,35.7
"247","HOIMA","KABWOYA",5626,34.85
"636","KUMI","ONGINO",5544,34
"39","MASINDI","BUDONGO",5428,33.15
"338","KATAKWI","KATAKWI",5391,32.3
"446","SERERE","KYERE",5364,31.45
"650","NWOYA","PURONGO",5361,30.6
"420","NEBBI","KUCWINY",4888,29.75
"137","HOIMA","BUSERUKA",4764,28.9
"644","PAKWACH","PANYANGO",4694,28.05
"301","KUMI","KANYUM",4554,27.2
"560","NAKAPIRIPIRIT","NAMALU",4371,26.35
"649","SERERE","PINGIRE",4311,25.5
"302","NGORA","KAPIR",4128,24.65
"417","BUKEDEA","KOLIR",4045,23.8
"526","KUMI","MUKONGORO",3997,22.95
"529","NGORA","MUKURA",3981,22.1
"725","PAKWACH","WADELAI",3952,21.25
"540","NAKAPIRIPIRIT","NABILATUK",3800,20.4
"629","KUMI","NYERO",3751,19.55
"251","BUKEDEA","KACHUMBALA",3743,18.7
"5","AMUDAT","AMUDAT",3698,17.85
"451","NAKAPIRIPIRIT","LOLACHAT",3693,17
"528","TORORO","MUKUJU",3645,16.15
"454","NAKAPIRIPIRIT","LOREGAE",3599,15.3
"457","AMUDAT","LOROO",3593,14.45
"587","NGORA","NGORA",3469,13.6
"680","MOROTO","RUPA",3411,12.75
"52","BUYENDE","BUGAYA",3304,11.9
"416","NGORA","KOBWIN",3287,11.05
"724","KATAKWI","USUK",3234,10.2
"71","BUKEDEA","BUKEDEA",3135,9.35
"155","BUSIA","BUTEBA",3092,8.5
"639","TORORO","OSUKURU",3072,7.65
"653","ARUA","RHINO CAMP",3068,6.8
"481","KATAKWI","MAGORO",3048,5.95
"312","AMUDAT","KARITA",3035,5.1
"158","BULIISA","BUTIABA",2976,4.25
"495","NAPAK","MATANY",2858,3.4
"632","ARUA","OGOKO",2834,2.55
"178","MASINDI","BWIJANGA",2824,1.7
"530","TORORO","MULANDA",2814,0.85
