"","District","Subcounty","Total IlliterateHailstorms","Total Illiterate Hailstorms Score"
"410","MAYUGE","MALONGO",9344.5,20
"346","MUBENDE","KITENGA",4943.5,19.6
"264","BUGIRI","KAPYANGA",4836.5,19.2
"371","KYENJOJO","KYARUSOZI",4667.5,18.8
"218","BUKEDEA","KACHUMBALA",4457.5,18.4
"391","SSEMBABULE","LWEBITAKULI",4190,18
"349","MUBENDE","KITUMBI",4180,17.6
"353","MAYUGE","KITYERERA",4141,17.2
"338","KAKUMIRO","KISIITA",4071.5,16.8
"291","KAYUNGA","KAYONZA",4066,16.4
"403","NAMUTUMBA","MAGADA",4052,16
"537","TORORO","OSUKURU",4025,15.6
"141","MUBENDE","BUTOLOOGO",3918,15.2
"80","NAMUTUMBA","BULANGE",3830.5,14.8
"105","KAYUNGA","BUSAANA",3726,14.4
"449","TORORO","MUKUJU",3697.5,14
"452","TORORO","MULANDA",3564,13.6
"60","MAYUGE","BUKATUBE",3519,13.2
"530","BUIKWE","NYENGA DIVISION",3331.5,12.8
"458","BUGIRI","NABUKALU",3320,12.4
"538","ARUA","PAJULU",3302,12
"324","ISINGIRO","KIKAGATE",3278.5,11.6
"554","TORORO","RUBONGI",3136.5,11.2
"483","NAMUTUMBA","NAMUTUMBA",3096,10.8
"387","RAKAI","LWAMAGGWA",3076,10.4
"83","BUGIRI","BULESA",3075,10
"347","KAYUNGA","KITIMBWA",3025.5,9.6
"129","JINJA","BUTAGAYA",3015,9.2
"422","SSEMBABULE","MATEETE",2989.5,8.8
"256","KAYUNGA","KANGULUMIRA",2984.5,8.4
"460","TORORO","NABUYOGA",2983.5,8
"317","MUBENDE","KIGANDO",2973.5,7.6
"542","TORORO","PAYA",2973,7.2
"229","KAKUMIRO","KAKINDO",2931,6.8
"210","GOMBA","KABULASOKE",2900,6.4
"341","KAMULI","KISOZI",2899.5,6
"392","SSEMBABULE","LWEMIYAGA",2838.5,5.6
"521","NTUNGAMO","NYAKYERA",2828.5,5.2
"85","BUGIRI","BULUGUYI",2828,4.8
"402","JINJA","MAFUBIRA",2828,4.8
"235","RAKAI","KAKUUTO",2822,4
"590","KIBUKU","TIRINYI",2804,3.6
"379","SSEMBABULE","LUGUSULU",2802.5,3.2
"401","GOMBA","MADDU",2796,2.8
"481","KAMULI","NAMASAGALI",2783,2.4
"560","NTUNGAMO","RUHAAMA",2783,2.4
"393","LWENGO","LWENGO",2739.5,1.6
"332","TORORO","KIREWA",2700.5,1.2
"31","JINJA","BUDONDO",2694.5,0.8
"427","BUTALEJA","MAZIMASA",2684,0.4
