"","District","Subcounty","Unskilled and UnemployedFlood","Unskilled and Unemployed Flood Score"
"297","NGORA","KOBWIN",4856,25
"218","NGORA","KAPIR",4577,24.5
"402","KOTIDO","NAKAPELIMORU",3870,24
"440","MBALE","NORTHERN DIVISION",3685,23.5
"162","NAPAK","IRIIRI",3583.5,23
"161","MBALE","INDUSTRIAL DIVISON",3473,22.5
"488","ADJUMANI","PAKELE",3380,22
"322","AMURU","LAMOGI",3165,21.5
"333","NAPAK","LOKOPO",3091.5,21
"397","MOROTO","NADUNGET",3046,20.5
"399","IGANGA","NAKALAMA",2956,20
"431","NGORA","NGORA",2949,19.5
"337","NAPAK","LOPEEI",2905.5,19
"390","NAKAPIRIPIRIT","NABILATUK",2808,18.5
"486","ARUA","PAJULU",2700,18
"437","MPIGI","NKOZI",2526,17.5
"357","JINJA","MAFUBIRA",2349.5,17
"245","KAYUNGA","KAYUNGA TOWN COUNCIL",2349,16.5
"181","KOTIDO","KACHERI",2345,16
"451","KASESE","NYAMWAMBA DIVISION",2252,15.5
"75","MBALE","BUKASAKYA",2225,15
"139","APAC","CHEGERE",2160,14.5
"44","AMURU","ATTIAK",2152.5,14
"278","LWENGO","KISEKKA",2080.5,13.5
"243","KAYUNGA","KAYONZA",1989,13
"179","BUTEBO","KABWANGASI",1954,12.5
"213","KOTIDO","KAPADAKOOK DIVISION",1897.5,12
"205","BUDAKA","KAMONKOLI",1875,11.5
"428","LIRA","NGETTA",1870,11
"401","MBALE","NAKALOKE TOWN COUNCIL",1780,10.5
"400","MBALE","NAKALOKE",1771,10
"185","BUYENDE","KAGULU",1767,9.5
"68","KYENJOJO","BUGAAKI",1756,9
"545","LUWERO","ZIROBWE",1747.5,8.5
"469","ALEBTONG","OMORO",1745.5,8
"267","LUWERO","KIKYUSA",1728,7.5
"482","ADJUMANI","PACARA",1693,7
"346","KALUNGU","LUKAYA TOWN COUNCIL",1680,6.5
"67","KYENJOJO","BUFUNJO",1659,6
"454","ARUA","ODUPI",1657,5.5
"118","BULIISA","BUTIABA",1630,5
"465","ARUA","OLUKO",1618,4.5
"177","MASAKA","KABONERA",1608,4
"220","BUGIRI","KAPYANGA",1596,3.5
"229","MUKONO","KASAWO",1581,3
"145","ADJUMANI","DZAIPI",1578,2.5
"142","ARUA","DADAMU",1575,2
"386","KIRYANDONGO","MUTUNDA",1536,1.5
"64","MASINDI","BUDONGO",1530,1
"406","MUKONO","NAMA",1529,0.5
