"","District","Subcounty","Youth with DisabilitiesLandslide","Youth with Disabilities Landslide Score"
"229","NAMISINDWA","TSEKULULU",642,16.5
"171","RUBANDA","MUKO",519,16.17
"194","KASESE","NYAMWAMBA DIVISION",491,15.84
"182","BULAMBULI","NAMISUNI",387,15.51
"128","KABAROLE","KICWAMBA",382.5,15.18
"82","RUBANDA","HAMURWA",380,14.85
"160","KASESE","MALIBA",362,14.52
"190","KISORO","NYAKABANDE",351.5,14.19
"45","BUDUDA","BUMAYOKA",344.5,13.86
"184","BUNDIBUGYO","NDUGUTO",335,13.53
"197","RUKUNGIRI","NYARUSHANJE",306,13.2
"124","NTUNGAMO","KAYONZA",291,12.87
"117","RUBIRIZI","KATANDA",290.5,12.54
"22","BULAMBULI","BUKHALU",289,12.21
"78","KAPCHORWA","CHEPTERECH",287,11.88
"115","RUKIGA","KASHAMBYA",283,11.55
"21","BUDUDA","BUKALASI",281,11.22
"52","MBALE","BUNGOKHO MUTOTO",273,10.89
"92","KABALE","KAHARO",271.5,10.56
"13","RUBANDA","BUFUNDI",263,10.23
"175","KISORO","MURAMBA",256.5,9.9
"164","KABALE","MAZIBA",251.5,9.57
"113","KABAROLE","KASENDA",237,9.24
"116","BUNDIBUGYO","KASITU",234.5,8.91
"208","NTUNGAMO","RUGARAMA",229.5,8.58
"59","BUDUDA","BUSHIKA",228.5,8.25
"123","KANUNGU","KAYONZA",228.5,8.25
"63","KABALE","BUTANDA",224.5,7.59
"65","SIRONKO","BUTEZA",221.5,7.26
"205","KABALE","RUBAYA",221.5,7.26
"134","BUNDIBUGYO","KIRUMYA",220.5,6.6
"204","RUBANDA","RUBANDA TOWN COUNCIL",218.5,6.27
"1","AMUDAT","AMUDAT",217,5.94
"26","RUKIGA","BUKINDA",214,5.61
"41","SIRONKO","BUMALIMBA",213,5.28
"181","MBALE","NAMANYONYI",209.5,4.95
"87","NAPAK","IRIIRI",207,4.62
"234","SIRONKO","ZESUI",207,4.62
"58","BUNDIBUGYO","BUSARU",206.5,3.96
"54","NAMISINDWA","BUPOTO",205.5,3.63
"33","SIRONKO","BUKYABO",204.5,3.3
"50","BUNDIBUGYO","BUNDIBUGYO TOWN COUNCIL",202,2.97
"107","KABAROLE","KARAMBI",201.5,2.64
"18","BUNYANGABU","BUHEESI",198.5,2.31
"27","NAMISINDWA","BUKOKHO",198.5,2.31
"195","RUBANDA","NYAMWERU",196.5,1.65
"6","RUBANDA","BUBAARE",190,1.32
"150","KASESE","KYARUMBA",190,1.32
"156","BULAMBULI","LUSHA",190,1.32
"149","KABALE","KYANAMIRA",187,0.33
