"Event","Impact","Total Population","Female Population","Male Population","% Total","Female Population","Male Population","% Total"
"Drought","High"," 5,540,226","2,828,926","2,711,300","100","51.06","48.94","500"
"Hailstorms","High","13,534,208","6,898,139","6,636,069","100","50.97","49.03","500"
"Lightning","High"," 6,507,714","3,310,989","3,196,725","100","50.88","49.12","500"
"Landslide","High"," 3,557,609","1,834,745","1,722,864","100","51.57","48.43","500"
"Flood","High"," 6,302,518","3,194,895","3,107,623","100","50.69","49.31","500"
