"Event","Impact","Total Population","Females Using Internet","Males Using Internet","% Total","Females Using Internet","Males Using Internet","% Total"
"Drought","Very High","  712,272","  6,557"," 11,112","2.48","0.92","1.56","9.71"
"Lightning","Very High","1,092,535"," 16,175"," 29,067","4.14","1.48","2.66","9.71"
"Flood","Very High","9,791,900","100,144","202,897","3.09","1.02","2.07","9.71"
