"Event","Impact","Total Population","Children with Disabilities","Youth with Disabilities","Elderly with Disabilities","% Total","Children with Disabilities","Youth with Disabilities","Elderly with Disabilities","% Total"
"Drought","Moderate","21,094,593","630,409","414,758","533,642","7.48","2.99","1.97","2.53","35.79"
"Hailstorms","Moderate","18,251,901","466,368","339,330","435,336","6.80","2.56","1.86","2.39","35.79"
"Lightning","Moderate","24,035,428","701,029","471,728","583,924","7.31","2.92","1.96","2.43","35.79"
"Landslide","Moderate","17,099,049","451,417","309,085","449,194","7.07","2.64","1.81","2.63","35.79"
"Flood","Moderate"," 2,621,876"," 65,726"," 46,973"," 73,330","7.10","2.51","1.79","2.80","35.79"
