"Event","Impact","Total Population","Females Using Internet","Males Using Internet","% Total","Females Using Internet","Males Using Internet","% Total"
"Drought","High"," 5,540,226"," 65,260","140,558","3.71","1.18","2.54","17.53"
"Hailstorms","High","13,534,208","197,397","325,087","3.86","1.46","2.40","17.53"
"Lightning","High"," 6,507,714"," 66,869","145,595","3.26","1.03","2.24","17.53"
"Landslide","High"," 3,557,609"," 47,665"," 81,302","3.63","1.34","2.29","17.53"
"Flood","High"," 6,302,518"," 63,252","129,107","3.05","1.00","2.05","17.53"
