"","Event","Impact","Male","Female","Total","male.phn","female.phn","total.phn","male.www","female.www","total.www","radio.inf","com.ann.inf","tel.inf","subs.ag","two.meals","child.pwd","youth.pwd","old.pwd","male.lit","female.lit","total.lit","Male.pc","Female.pc","Total.pc","male.phn.pc","female.phn.pc","total.phn.pc","male.www.pc","female.www.pc","total.www.pc","radio.inf.pc","com.ann.inf.pc","tel.inf.pc","subs.ag.pc","two.meals.pc","child.pwd.pc","youth.pwd.pc","old.pwd.pc","male.lit.pc","female.lit.pc","total.lit.pc"
"1","Hailstorms","High","6,636,069","6,898,139","13,534,208","1,817,987","1,483,015","3,301,002","325,087","197,397","  522,484","1,809,790","107,643","165,206","2,059,568","265,207","343,095","236,083","371,126","614,348","1,115,426","1,729,774","49.03","50.97","100","13.43","10.96","24.39","2.40","1.46","3.86","13.37","0.8","1.22","15.22","1.96","2.54","1.74","2.74","4.54","8.24","12.78"
"2","Hailstorms","Moderate","8,916,578","9,335,323","18,251,901","2,724,254","2,341,448","5,065,702","746,944","535,638","1,282,582","2,151,578","164,395","313,000","2,384,710","425,520","466,368","339,330","435,336","706,504","1,440,141","2,146,645","48.85","51.15","100","14.93","12.83","27.75","4.09","2.93","7.03","11.79","0.9","1.71","13.07","2.33","2.56","1.86","2.39","3.87","7.89","11.76"
