"Event","Impact","Subcounty","District","Subsistence Farmers","Population On Less Than Two Meals","Total","% Total","% Subsistence Farmers","% Population On Less Than Two Meals"
"Drought","Total","NA","NA","4,062,149","649,571","4,711,720","100","86.21","13.79"
"Event","Impact","Subcounty","District","4,062,149","649,571","4,711,720","100","86.21","13.79"
"Hailstorms","Total","NA","NA","4,444,278","690,727","5,135,005","100","86.55","13.45"
"Event","Impact","Subcounty","District","4,444,278","690,727","5,135,005","100","86.55","13.45"
"Lightning","Total","NA","NA","4,444,270","699,698","5,143,968","100","86.40","13.60"
"Event","Impact","Subcounty","District","4,444,270","699,698","5,143,968","100","86.40","13.60"
"Landslide","Total","NA","NA","3,234,663","464,110","3,698,773","100","87.45","12.55"
"Event","Impact","Subcounty","District","3,234,663","464,110","3,698,773","100","87.45","12.55"
"Flood","Total","NA","NA","2,935,452","488,286","3,423,738","100","85.74","14.26"
"Event","Impact","Subcounty","District","2,935,452","488,286","3,423,738","100","85.74","14.26"
