"Event","Impact","Total Population","Female Population","Male Population","% Total","Female Population","Male Population","% Total"
"Drought","Very High","  712,272","  372,993","  339,279","100","52.37","47.63","300"
"Lightning","Very High","1,092,535","  559,377","  533,158","100","51.20","48.80","300"
"Flood","Very High","9,791,900","4,984,771","4,807,129","100","50.91","49.09","300"
