"Event","Impact","Total Population","Females Using Internet","Males Using Internet","% Total","Females Using Internet","Males Using Internet","% Total"
"Drought","Moderate","21,094,593","397,682","626,239","4.85","1.89","2.97","25.39"
"Hailstorms","Moderate","18,251,901","535,638","746,944","7.03","2.93","4.09","25.39"
"Lightning","Moderate","24,035,428","605,154","896,330","6.25","2.52","3.73","25.39"
"Landslide","Moderate","17,099,049","243,400","418,970","3.87","1.42","2.45","25.39"
"Flood","Moderate"," 2,621,876"," 32,284"," 56,534","3.39","1.23","2.16","25.39"
