"","Event","Impact","District","Male","Female","Total","Children","male.phn","female.phn","total.phn","male.www","female.www","total.www","radio.inf","com.ann.inf","tel.inf","subs.ag","two.meals","child.pwd","youth.pwd","old.pwd","male.lit","female.lit","total.lit","hlth.dist","prisch.dist","elderly","orphans","semiperm_housing","temp_housing","dwelling","neet","Male.pc","Female.pc","Total.pc","Children.pc","male.phn.pc","female.phn.pc","total.phn.pc","male.www.pc","female.www.pc","total.www.pc","radio.inf.pc","com.ann.inf.pc","tel.inf.pc","subs.ag.pc","two.meals.pc","child.pwd.pc","youth.pwd.pc","old.pwd.pc","male.lit.pc","female.lit.pc","total.lit.pc","hlth.dist.pc","prisch.dist.pc","elderly.pc","orphans.pc","semiperm_housing.pc","temp_housing.pc","dwelling.pc","neet.pc"
"1","Hailstorms","High","ARUA","285,572","312,589","598,161","178,291","68,570","50,508","119,078","19,762"," 9,207","28,969","54,883","4,968"," 9,282","83,262","11,416","14,685","10,253","12,860","17,929","60,732","78,661","23,068"," 7,315","15,462","2,019","36,222","56,318","109,655","19,444","47.74","52.26","100","29.81","11.46"," 8.44","19.91","3.30","1.54","4.84"," 9.18","0.83","1.55","13.92","1.91","2.46","1.71","2.15","3.00","10.15","13.15"," 3.86","1.22","2.58","0.34"," 6.06"," 9.42","18.33","3.25"
"2","Hailstorms","High","BUDAKA","100,620","106,977","207,597"," 70,040","20,460","12,118"," 32,578"," 2,833"," 1,377"," 4,210","18,542","1,976"," 2,243","32,846"," 1,566"," 5,388"," 3,203"," 5,267","10,553","21,654","32,207"," 5,240"," 1,752"," 7,130","  537","22,819"," 6,465"," 36,700"," 4,065","48.47","51.53","100","33.74"," 9.86"," 5.84","15.69","1.36","0.66","2.03"," 8.93","0.95","1.08","15.82","0.75","2.60","1.54","2.54","5.08","10.43","15.51"," 2.52","0.84","3.43","0.26","10.99"," 3.11","17.68","1.96"
"3","Hailstorms","High","BUDUDA","105,820","104,353","210,173"," 65,108","27,044","20,387"," 47,431"," 6,307"," 4,266","10,573","23,980","  967"," 1,555","32,602"," 4,737"," 8,180"," 4,410"," 6,083","11,012","14,670","25,682"," 6,573"," 2,073"," 6,931","1,947","32,123"," 2,511"," 36,603"," 5,455","50.35","49.65","100","30.98","12.87"," 9.70","22.57","3.00","2.03","5.03","11.41","0.46","0.74","15.51","2.25","3.89","2.10","2.89","5.24"," 6.98","12.22"," 3.13","0.99","3.30","0.93","15.28"," 1.19","17.42","2.60"
"4","Hailstorms","High","BUGIRI"," 90,785"," 94,809","185,594"," 64,802","19,427","11,813"," 31,240"," 2,005"," 1,074"," 3,079","20,367","2,523"," 1,423","31,268"," 2,083"," 5,734"," 3,728"," 4,594","10,736","20,771","31,507"," 8,168"," 2,463"," 5,112","  568","11,297","15,998"," 35,289"," 3,231","48.92","51.08","100","34.92","10.47"," 6.36","16.83","1.08","0.58","1.66","10.97","1.36","0.77","16.85","1.12","3.09","2.01","2.48","5.78","11.19","16.98"," 4.40","1.33","2.75","0.31"," 6.09"," 8.62","19.01","1.74"
"5","Hailstorms","High","BUHWEJU","  9,473","  9,748"," 19,221","  6,361"," 2,419"," 1,426","  3,845","   445","   332","   777"," 2,513","   53","   367"," 3,304","   382","   339","   438","   410","   929"," 1,594"," 2,523"," 1,571","   872","   465","   69"," 3,154","   387","  3,819","   287","49.28","50.72","100","33.09","12.59"," 7.42","20.00","2.32","1.73","4.04","13.07","0.28","1.91","17.19","1.99","1.76","2.28","2.13","4.83"," 8.29","13.13"," 8.17","4.54","2.42","0.36","16.41"," 2.01","19.87","1.49"
"6","Hailstorms","High","BUIKWE","187,887","194,651","382,538","115,076","60,455","57,147","117,602","13,953"," 8,692","22,645","49,885","5,041"," 6,944","45,147","10,810"," 8,309"," 6,948","10,319","14,015","24,081","38,096","16,183"," 5,632","10,681","2,319","37,545"," 4,843"," 83,281","16,662","49.12","50.88","100","30.08","15.80","14.94","30.74","3.65","2.27","5.92","13.04","1.32","1.82","11.80","2.83","2.17","1.82","2.70","3.66"," 6.30"," 9.96"," 4.23","1.47","2.79","0.61"," 9.81"," 1.27","21.77","4.36"
"7","Hailstorms","High","BUKEDEA"," 40,374"," 43,251"," 83,625"," 27,701"," 8,483"," 4,697"," 13,180"," 1,382","   522"," 1,904"," 7,346","  571"," 1,726","13,172","   868"," 2,117","   918"," 2,323"," 4,216"," 8,959","13,175"," 5,787","   530"," 3,073","  229"," 6,629"," 6,253"," 14,974"," 1,278","48.28","51.72","100","33.13","10.14"," 5.62","15.76","1.65","0.62","2.28"," 8.78","0.68","2.06","15.75","1.04","2.53","1.10","2.78","5.04","10.71","15.75"," 6.92","0.63","3.67","0.27"," 7.93"," 7.48","17.91","1.53"
"8","Hailstorms","High","BUKOMANSIMBI"," 75,109"," 76,304","151,413"," 46,647","20,677","20,493"," 41,170"," 2,453"," 1,429"," 3,882","25,380","1,277"," 1,555","27,794"," 6,082"," 2,962"," 1,785"," 5,692"," 5,273"," 8,440","13,713"," 6,792"," 1,296"," 6,267","1,027","19,935","   835"," 33,139"," 2,424","49.61","50.39","100","30.81","13.66","13.53","27.19","1.62","0.94","2.56","16.76","0.84","1.03","18.36","4.02","1.96","1.18","3.76","3.48"," 5.57"," 9.06"," 4.49","0.86","4.14","0.68","13.17"," 0.55","21.89","1.60"
"9","Hailstorms","High","BULAMBULI","  4,121","  3,924","  8,045","  2,389","   634","   294","    928","   101","    46","   147"," 1,277","   32","    20"," 1,581","   106","    78","    59","   208","   440","   652"," 1,092","   220","   119","   311","   38"," 1,552","   170","  1,740","   107","51.22","48.78","100","29.70"," 7.88"," 3.65","11.54","1.26","0.57","1.83","15.87","0.40","0.25","19.65","1.32","0.97","0.73","2.59","5.47"," 8.10","13.57"," 2.73","1.48","3.87","0.47","19.29"," 2.11","21.63","1.33"
"10","Hailstorms","High","BUNDIBUGYO"," 15,597"," 16,114"," 31,711"," 10,760"," 4,349"," 3,378","  7,727","   736","   300"," 1,036"," 4,320","  118","   433"," 4,425","   291"," 1,861"," 1,280","   789"," 1,434"," 2,950"," 4,384"," 1,969","   922","   618","   90"," 5,221","   322","  6,042","   669","49.18","50.82","100","33.93","13.71","10.65","24.37","2.32","0.95","3.27","13.62","0.37","1.37","13.95","0.92","5.87","4.04","2.49","4.52"," 9.30","13.82"," 6.21","2.91","1.95","0.28","16.46"," 1.02","19.05","2.11"
"11","Hailstorms","High","BUNYANGABU"," 43,964"," 45,549"," 89,513"," 28,154","11,695","11,338"," 23,033"," 1,664","   976"," 2,640","14,879","  265","   478","14,692"," 1,173"," 1,809"," 1,392"," 3,200"," 3,771"," 6,437","10,208"," 3,236"," 1,202"," 3,378","  732","17,291","   519"," 19,220"," 1,373","49.11","50.89","100","31.45","13.07","12.67","25.73","1.86","1.09","2.95","16.62","0.30","0.53","16.41","1.31","2.02","1.56","3.57","4.21"," 7.19","11.40"," 3.62","1.34","3.77","0.82","19.32"," 0.58","21.47","1.53"
"12","Hailstorms","High","BUSHENYI"," 92,018"," 96,510","188,528"," 49,715","30,127","27,988"," 58,115"," 7,061"," 4,997","12,058","29,518","  267"," 2,864","26,836"," 2,998"," 3,191"," 2,410"," 5,301"," 6,168","11,669","17,837"," 6,996"," 1,518"," 6,726","1,032","27,199","   678"," 39,404"," 6,349","48.81","51.19","100","26.37","15.98","14.85","30.83","3.75","2.65","6.40","15.66","0.14","1.52","14.23","1.59","1.69","1.28","2.81","3.27"," 6.19"," 9.46"," 3.71","0.81","3.57","0.55","14.43"," 0.36","20.90","3.37"
"13","Hailstorms","High","BUSIA","156,447","167,215","323,662","102,816","41,387","33,190"," 74,577"," 8,463"," 4,116","12,579","32,811","1,812"," 3,167","42,752"," 4,222"," 7,766"," 5,069"," 7,576","13,580","30,362","43,942","10,165"," 2,613"," 9,294","1,524","17,511","26,993"," 63,483"," 9,987","48.34","51.66","100","31.77","12.79","10.25","23.04","2.61","1.27","3.89","10.14","0.56","0.98","13.21","1.30","2.40","1.57","2.34","4.20"," 9.38","13.58"," 3.14","0.81","2.87","0.47"," 5.41"," 8.34","19.61","3.09"
"14","Hailstorms","High","BUTALEJA","119,466","124,687","244,153"," 86,061","22,884","11,576"," 34,460"," 2,518"," 1,380"," 3,898","22,877","3,767"," 2,080","39,853"," 2,106","12,790"," 6,864"," 7,068","13,783","26,236","40,019"," 6,179"," 2,421"," 7,542","  551","24,780","11,524"," 44,035"," 2,286","48.93","51.07","100","35.25"," 9.37"," 4.74","14.11","1.03","0.57","1.60"," 9.37","1.54","0.85","16.32","0.86","5.24","2.81","2.89","5.65","10.75","16.39"," 2.53","0.99","3.09","0.23","10.15"," 4.72","18.04","0.94"
"15","Hailstorms","High","BUTAMBALA","  9,453","  9,208"," 18,661","  6,213"," 2,455"," 2,125","  4,580","   284","   181","   465"," 2,962","   81","   188"," 3,225","   411","   187","   160","   393","   684"," 1,061"," 1,745","   592","   163","   642","  128"," 2,377","   141","  3,762","   625","50.66","49.34","100","33.29","13.16","11.39","24.54","1.52","0.97","2.49","15.87","0.43","1.01","17.28","2.20","1.00","0.86","2.11","3.67"," 5.69"," 9.35"," 3.17","0.87","3.44","0.69","12.74"," 0.76","20.16","3.35"
"16","Hailstorms","High","BUTEBO"," 70,352"," 74,619","144,971"," 49,391","13,422"," 6,779"," 20,201"," 1,988"," 1,005"," 2,993","11,677","1,929"," 1,346","22,489"," 1,272"," 3,563"," 2,103"," 3,694"," 7,530","15,358","22,888"," 4,014"," 1,721"," 4,844","  280","14,173"," 6,727"," 24,680"," 3,406","48.53","51.47","100","34.07"," 9.26"," 4.68","13.93","1.37","0.69","2.06"," 8.05","1.33","0.93","15.51","0.88","2.46","1.45","2.55","5.19","10.59","15.79"," 2.77","1.19","3.34","0.19"," 9.78"," 4.64","17.02","2.35"
"17","Hailstorms","High","BUVUMA"," 44,944"," 38,488"," 83,432"," 25,989","13,804"," 8,547"," 22,351"," 1,758","   631"," 2,389","11,959","2,559"," 1,177","10,806"," 2,246"," 3,377"," 3,919"," 1,173"," 6,657"," 7,986","14,643"," 8,062"," 3,442","   986","  271","14,860"," 7,055"," 22,755"," 2,451","53.87","46.13","100","31.15","16.55","10.24","26.79","2.11","0.76","2.86","14.33","3.07","1.41","12.95","2.69","4.05","4.70","1.41","7.98"," 9.57","17.55"," 9.66","4.13","1.18","0.32","17.81"," 8.46","27.27","2.94"
"18","Hailstorms","High","GOMBA"," 65,693"," 62,297","127,990"," 39,953","17,915","14,075"," 31,990"," 1,764","   939"," 2,703","19,307","1,512"," 1,389","21,799"," 3,297"," 2,725"," 1,963"," 4,227"," 6,572"," 8,963","15,535"," 8,432"," 2,748"," 4,412","  817","16,287"," 3,665"," 27,139"," 3,624","51.33","48.67","100","31.22","14.00","11.00","24.99","1.38","0.73","2.11","15.08","1.18","1.09","17.03","2.58","2.13","1.53","3.30","5.13"," 7.00","12.14"," 6.59","2.15","3.45","0.64","12.73"," 2.86","21.20","2.83"
"19","Hailstorms","High","IBANDA","108,890","114,428","223,318"," 62,641","30,984","27,423"," 58,407"," 5,868"," 3,645"," 9,513","35,358","  684"," 2,875","37,900"," 3,342"," 3,818"," 2,995"," 6,706"," 8,160","16,174","24,334"," 7,548"," 2,422"," 7,544","1,061","34,329"," 1,991"," 48,127"," 4,144","48.76","51.24","100","28.05","13.87","12.28","26.15","2.63","1.63","4.26","15.83","0.31","1.29","16.97","1.50","1.71","1.34","3.00","3.65"," 7.24","10.90"," 3.38","1.08","3.38","0.48","15.37"," 0.89","21.55","1.86"
"20","Hailstorms","High","IGANGA"," 87,523"," 98,160","185,683"," 56,010","26,452","25,836"," 52,288"," 5,973"," 4,449","10,422","23,585","  955"," 2,306","21,628"," 2,977"," 4,038"," 3,532"," 4,426"," 7,454","15,318","22,772"," 2,359","   794"," 4,953","  589","16,828"," 1,839"," 37,369"," 9,008","47.14","52.86","100","30.16","14.25","13.91","28.16","3.22","2.40","5.61","12.70","0.51","1.24","11.65","1.60","2.17","1.90","2.38","4.01"," 8.25","12.26"," 1.27","0.43","2.67","0.32"," 9.06"," 0.99","20.13","4.85"
"21","Hailstorms","High","ISINGIRO","206,846","220,454","427,300","134,220","53,969","42,375"," 96,344"," 6,501"," 3,874","10,375","60,604","1,378"," 3,268","73,222"," 7,279"," 9,394"," 6,561","10,001","20,060","36,579","56,639","25,275","15,912","12,733","1,633","68,097"," 7,705"," 87,654"," 6,920","48.41","51.59","100","31.41","12.63"," 9.92","22.55","1.52","0.91","2.43","14.18","0.32","0.76","17.14","1.70","2.20","1.54","2.34","4.69"," 8.56","13.26"," 5.92","3.72","2.98","0.38","15.94"," 1.80","20.51","1.62"
"22","Hailstorms","High","JINJA","219,820","229,296","449,116","125,980","76,767","67,439","144,206","21,647","14,046","35,693","52,689","3,205"," 9,501","38,894","10,728"," 9,517"," 8,381"," 9,879","13,020","28,076","41,096"," 3,536"," 1,808","10,009","1,865","45,659"," 1,246"," 93,092","22,559","48.95","51.05","100","28.05","17.09","15.02","32.11","4.82","3.13","7.95","11.73","0.71","2.12"," 8.66","2.39","2.12","1.87","2.20","2.90"," 6.25"," 9.15"," 0.79","0.40","2.23","0.42","10.17"," 0.28","20.73","5.02"
"23","Hailstorms","High","KABALE","104,006","114,117","218,123"," 57,573","30,072","26,297"," 56,369"," 6,493"," 4,071","10,564","35,319","1,148"," 1,534","35,898"," 4,580"," 5,230"," 3,950"," 8,835"," 7,807","17,757","25,564"," 7,336"," 3,438"," 8,816","1,122","39,759","   481"," 46,914"," 5,687","47.68","52.32","100","26.39","13.79","12.06","25.84","2.98","1.87","4.84","16.19","0.53","0.70","16.46","2.10","2.40","1.81","4.05","3.58"," 8.14","11.72"," 3.36","1.58","4.04","0.51","18.23"," 0.22","21.51","2.61"
"24","Hailstorms","High","KABAROLE","149,615","149,374","298,989"," 84,532","49,543","43,799"," 93,342","11,551"," 7,657","19,208","51,939","1,344"," 3,532","37,533"," 5,882"," 5,933"," 5,202"," 9,873","13,623","20,370","33,993","10,610"," 5,808","10,058","2,527","50,694"," 1,865"," 67,831"," 8,060","50.04","49.96","100","28.27","16.57","14.65","31.22","3.86","2.56","6.42","17.37","0.45","1.18","12.55","1.97","1.98","1.74","3.30","4.56"," 6.81","11.37"," 3.55","1.94","3.36","0.85","16.96"," 0.62","22.69","2.70"
"25","Hailstorms","High","KAGADI"," 40,660"," 41,652"," 82,312"," 28,163","10,679"," 6,434"," 17,113"," 1,095","   394"," 1,489","12,757","  189","   836","15,622","   865"," 2,476"," 1,802"," 1,647"," 3,368"," 6,787","10,155"," 6,343"," 1,644"," 1,700","  300","13,285"," 2,446"," 17,603","   517","49.40","50.60","100","34.21","12.97"," 7.82","20.79","1.33","0.48","1.81","15.50","0.23","1.02","18.98","1.05","3.01","2.19","2.00","4.09"," 8.25","12.34"," 7.71","2.00","2.07","0.36","16.14"," 2.97","21.39","0.63"
"26","Hailstorms","High","KAKUMIRO","147,157","145,951","293,108","100,363","40,448","22,916"," 63,364"," 3,552"," 1,461"," 5,013","43,281","  592"," 2,760","53,539"," 4,244"," 6,970"," 5,430"," 5,282","15,305","24,896","40,201","23,815"," 6,313"," 5,601","1,023","42,271","12,078"," 62,775"," 2,250","50.21","49.79","100","34.24","13.80"," 7.82","21.62","1.21","0.50","1.71","14.77","0.20","0.94","18.27","1.45","2.38","1.85","1.80","5.22"," 8.49","13.72"," 8.12","2.15","1.91","0.35","14.42"," 4.12","21.42","0.77"
"27","Hailstorms","High","KALANGALA"," 31,349"," 22,944"," 54,293"," 12,632","12,955"," 9,282"," 22,237"," 2,235","   853"," 3,088","12,962","1,159"," 1,529"," 4,413"," 2,806","   966"," 1,998","   604"," 4,186"," 3,233"," 7,419"," 5,801"," 2,344","   580","  212","13,598"," 3,962"," 19,828"," 2,328","57.74","42.26","100","23.27","23.86","17.10","40.96","4.12","1.57","5.69","23.87","2.13","2.82"," 8.13","5.17","1.78","3.68","1.11","7.71"," 5.95","13.66","10.68","4.32","1.07","0.39","25.05"," 7.30","36.52","4.29"
"28","Hailstorms","High","KALIRO"," 30,223"," 31,713"," 61,936"," 21,325"," 5,983"," 2,691","  8,674","   696","   404"," 1,100"," 6,939","  432","   506"," 9,974","   441"," 1,894"," 1,273"," 1,882"," 3,298"," 6,390"," 9,688"," 4,055","   569"," 1,975","  128"," 6,042"," 2,734"," 10,751","   447","48.80","51.20","100","34.43"," 9.66"," 4.34","14.00","1.12","0.65","1.78","11.20","0.70","0.82","16.10","0.71","3.06","2.06","3.04","5.32","10.32","15.64"," 6.55","0.92","3.19","0.21"," 9.76"," 4.41","17.36","0.72"
"29","Hailstorms","High","KALUNGU"," 89,679"," 93,553","183,232"," 55,524","24,810","25,145"," 49,955"," 2,868"," 1,722"," 4,590","28,497","2,547"," 2,076","25,999"," 5,868"," 3,692"," 2,465"," 7,174"," 6,602","10,198","16,800"," 6,277"," 1,420"," 7,382","1,310","21,307"," 1,387"," 39,660"," 2,317","48.94","51.06","100","30.30","13.54","13.72","27.26","1.57","0.94","2.51","15.55","1.39","1.13","14.19","3.20","2.01","1.35","3.92","3.60"," 5.57"," 9.17"," 3.43","0.77","4.03","0.71","11.63"," 0.76","21.64","1.26"
"30","Hailstorms","High","KAMULI","132,609","140,650","273,259"," 88,022","31,642","23,409"," 55,051"," 4,834"," 2,731"," 7,565","34,074","2,311"," 2,531","42,507"," 3,910"," 7,127"," 5,014"," 7,855","10,719","22,496","33,215","10,646"," 3,248"," 8,145","1,007","33,225"," 3,274"," 51,557"," 6,944","48.53","51.47","100","32.21","11.58"," 8.57","20.15","1.77","1.00","2.77","12.47","0.85","0.93","15.56","1.43","2.61","1.83","2.87","3.92"," 8.23","12.16"," 3.90","1.19","2.98","0.37","12.16"," 1.20","18.87","2.54"
"31","Hailstorms","High","KAMWENGE"," 24,461"," 25,878"," 50,339"," 15,153"," 5,978"," 4,802"," 10,780","   820","   412"," 1,232"," 7,673","   99","   406"," 9,312","   442"," 1,063","   745"," 1,524"," 1,782"," 4,020"," 5,802"," 3,836","   532"," 1,862","  259"," 8,669","   651"," 10,634","   487","48.59","51.41","100","30.10","11.88"," 9.54","21.41","1.63","0.82","2.45","15.24","0.20","0.81","18.50","0.88","2.11","1.48","3.03","3.54"," 7.99","11.53"," 7.62","1.06","3.70","0.51","17.22"," 1.29","21.12","0.97"
"32","Hailstorms","High","KANUNGU"," 83,326"," 89,490","172,816"," 49,077","23,655","20,418"," 44,073"," 4,140"," 2,510"," 6,650","29,867","  402"," 1,154","31,302"," 3,134"," 3,811"," 2,798"," 5,519"," 7,303","14,204","21,507"," 6,973"," 2,285"," 6,085","1,116","29,167"," 2,837"," 37,898"," 3,059","48.22","51.78","100","28.40","13.69","11.81","25.50","2.40","1.45","3.85","17.28","0.23","0.67","18.11","1.81","2.21","1.62","3.19","4.23"," 8.22","12.45"," 4.03","1.32","3.52","0.65","16.88"," 1.64","21.93","1.77"
"33","Hailstorms","High","KAYUNGA","168,274","175,635","343,909","109,873","43,439","37,530"," 80,969"," 6,760"," 3,882","10,642","42,547","5,107"," 3,846","52,117"," 7,983"," 7,062"," 4,364"," 9,403","13,453","27,442","40,895","16,186"," 3,352","11,015","1,538","33,148"," 9,124"," 68,817"," 8,239","48.93","51.07","100","31.95","12.63","10.91","23.54","1.97","1.13","3.09","12.37","1.48","1.12","15.15","2.32","2.05","1.27","2.73","3.91"," 7.98","11.89"," 4.71","0.97","3.20","0.45"," 9.64"," 2.65","20.01","2.40"
"34","Hailstorms","High","KIBAALE"," 70,815"," 70,132","140,947"," 49,487","17,184"," 9,346"," 26,530"," 1,670","   767"," 2,437","22,112","  414"," 1,084","25,984"," 1,475"," 3,787"," 2,698"," 2,416"," 6,004","10,179","16,183","16,379"," 5,487"," 2,781","  468","23,297"," 4,085"," 30,256"," 1,153","50.24","49.76","100","35.11","12.19"," 6.63","18.82","1.18","0.54","1.73","15.69","0.29","0.77","18.44","1.05","2.69","1.91","1.71","4.26"," 7.22","11.48","11.62","3.89","1.97","0.33","16.53"," 2.90","21.47","0.82"
"35","Hailstorms","High","KIBOGA"," 30,582"," 30,013"," 60,595"," 17,972"," 9,522"," 8,288"," 17,810"," 1,847","   997"," 2,844"," 9,036","1,251"," 1,107"," 8,886"," 1,865"," 1,400"," 1,311"," 1,865"," 2,836"," 4,104"," 6,940"," 3,307","   959"," 1,985","  317"," 6,747"," 1,255"," 13,906"," 2,009","50.47","49.53","100","29.66","15.71","13.68","29.39","3.05","1.65","4.69","14.91","2.06","1.83","14.66","3.08","2.31","2.16","3.08","4.68"," 6.77","11.45"," 5.46","1.58","3.28","0.52","11.13"," 2.07","22.95","3.32"
"36","Hailstorms","High","KIBUKU"," 97,476","104,557","202,033"," 70,508","18,367"," 9,817"," 28,184"," 2,025"," 1,099"," 3,124","17,383","1,891"," 1,754","31,462"," 1,462"," 6,328"," 3,470"," 4,777","11,008","22,201","33,209"," 7,858"," 2,038"," 6,194","  471","18,977"," 9,339"," 35,088"," 2,688","48.25","51.75","100","34.90"," 9.09"," 4.86","13.95","1.00","0.54","1.55"," 8.60","0.94","0.87","15.57","0.72","3.13","1.72","2.36","5.45","10.99","16.44"," 3.89","1.01","3.07","0.23"," 9.39"," 4.62","17.37","1.33"
"37","Hailstorms","High","KIRUHURA","139,130","134,868","273,998"," 79,209","42,937","31,893"," 74,830"," 6,124"," 3,005"," 9,129","39,866","  750"," 3,210","38,614"," 6,705"," 6,335"," 6,390"," 7,868","19,651","24,883","44,534","17,143"," 8,974"," 8,476","1,344","34,462"," 8,617"," 54,673"," 7,661","50.78","49.22","100","28.91","15.67","11.64","27.31","2.24","1.10","3.33","14.55","0.27","1.17","14.09","2.45","2.31","2.33","2.87","7.17"," 9.08","16.25"," 6.26","3.28","3.09","0.49","12.58"," 3.14","19.95","2.80"
"38","Hailstorms","High","KYANKWANZI"," 95,353"," 88,194","183,547"," 57,168","30,104","19,422"," 49,526"," 3,950"," 1,776"," 5,726","25,442","1,734"," 2,480","32,031"," 4,960"," 4,932"," 4,227"," 5,126","12,441","15,676","28,117","15,945"," 5,084"," 6,051","  775","21,591"," 9,992"," 40,491"," 2,468","51.95","48.05","100","31.15","16.40","10.58","26.98","2.15","0.97","3.12","13.86","0.94","1.35","17.45","2.70","2.69","2.30","2.79","6.78"," 8.54","15.32"," 8.69","2.77","3.30","0.42","11.76"," 5.44","22.06","1.34"
"39","Hailstorms","High","KYENJOJO"," 44,764"," 44,447"," 89,211"," 29,174","11,103"," 7,739"," 18,842"," 1,490","   773"," 2,263","12,766","  828","   749","12,885"," 1,724"," 2,481"," 2,074"," 2,999"," 4,731"," 8,613","13,344","10,325"," 3,651"," 3,071","  595","15,075"," 2,185"," 19,766"," 3,130","50.18","49.82","100","32.70","12.45"," 8.67","21.12","1.67","0.87","2.54","14.31","0.93","0.84","14.44","1.93","2.78","2.32","3.36","5.30"," 9.65","14.96","11.57","4.09","3.44","0.67","16.90"," 2.45","22.16","3.51"
"40","Hailstorms","High","KYOTERA"," 79,602"," 82,926","162,528"," 48,162","24,350","24,963"," 49,313"," 3,674"," 2,622"," 6,296","27,228","2,377"," 1,770","24,020"," 4,101"," 2,439"," 1,639"," 4,859"," 5,199"," 8,093","13,292"," 3,152"," 1,285"," 6,295","1,379","18,315","   742"," 37,093"," 3,516","48.98","51.02","100","29.63","14.98","15.36","30.34","2.26","1.61","3.87","16.75","1.46","1.09","14.78","2.52","1.50","1.01","2.99","3.20"," 4.98"," 8.18"," 1.94","0.79","3.87","0.85","11.27"," 0.46","22.82","2.16"
"41","Hailstorms","High","LUUKA"," 17,183"," 19,443"," 36,626"," 11,859"," 4,598"," 4,145","  8,743","   904","   779"," 1,683"," 4,819","  566","   373"," 5,036","   631"," 1,027","   547","   739"," 1,231"," 2,957"," 4,188","   233","   123"," 1,022","  122"," 4,387","   151","  7,062"," 1,381","46.91","53.09","100","32.38","12.55","11.32","23.87","2.47","2.13","4.60","13.16","1.55","1.02","13.75","1.72","2.80","1.49","2.02","3.36"," 8.07","11.43"," 0.64","0.34","2.79","0.33","11.98"," 0.41","19.28","3.77"
"42","Hailstorms","High","LUWERO"," 31,434"," 29,693"," 61,127"," 19,332"," 9,874"," 7,101"," 16,975"," 1,272","   537"," 1,809"," 9,309","  532","   690","10,322"," 1,523"," 1,709"," 1,124"," 1,657"," 2,923"," 4,238"," 7,161"," 4,636"," 1,093"," 1,851","  325"," 6,879"," 2,056"," 13,312"," 1,331","51.42","48.58","100","31.63","16.15","11.62","27.77","2.08","0.88","2.96","15.23","0.87","1.13","16.89","2.49","2.80","1.84","2.71","4.78"," 6.93","11.71"," 7.58","1.79","3.03","0.53","11.25"," 3.36","21.78","2.18"
"43","Hailstorms","High","LWENGO","133,474","141,479","274,953"," 88,834","36,790","37,510"," 74,300"," 4,813"," 3,086"," 7,899","41,721","5,105"," 2,993","46,679"," 7,851"," 5,943"," 3,802"," 8,566"," 9,626","17,575","27,201","11,079"," 2,593"," 9,349","1,861","35,145"," 1,587"," 59,481"," 4,882","48.54","51.46","100","32.31","13.38","13.64","27.02","1.75","1.12","2.87","15.17","1.86","1.09","16.98","2.86","2.16","1.38","3.12","3.50"," 6.39"," 9.89"," 4.03","0.94","3.40","0.68","12.78"," 0.58","21.63","1.78"
"44","Hailstorms","High","LYANTONDE"," 46,714"," 47,039"," 93,753"," 29,004","14,332","11,748"," 26,080"," 2,478"," 1,628"," 4,106","13,692","1,325"," 1,128","14,441"," 2,633"," 2,012"," 1,588"," 2,326"," 4,599"," 7,127","11,726"," 3,675"," 2,642"," 2,491","  507"," 9,693"," 3,034"," 20,012"," 2,306","49.83","50.17","100","30.94","15.29","12.53","27.82","2.64","1.74","4.38","14.60","1.41","1.20","15.40","2.81","2.15","1.69","2.48","4.91"," 7.60","12.51"," 3.92","2.82","2.66","0.54","10.34"," 3.24","21.35","2.46"
"45","Hailstorms","High","MANAFWA"," 67,215"," 70,456","137,671"," 42,841","15,595","10,502"," 26,097"," 2,659"," 1,285"," 3,944","18,023","  799"," 1,241","24,977"," 2,799"," 8,511"," 4,035"," 5,517"," 7,477","12,817","20,294"," 4,885"," 1,893"," 5,263","  324","22,121"," 3,287"," 28,384"," 1,450","48.82","51.18","100","31.12","11.33"," 7.63","18.96","1.93","0.93","2.86","13.09","0.58","0.90","18.14","2.03","6.18","2.93","4.01","5.43"," 9.31","14.74"," 3.55","1.38","3.82","0.24","16.07"," 2.39","20.62","1.05"
"46","Hailstorms","High","MASAKA","145,552","151,452","297,004"," 85,727","50,494","52,859","103,353","10,758"," 8,210","18,968","46,583","3,648"," 5,076","32,003"," 9,603"," 4,701"," 3,794"," 7,936"," 7,830","11,467","19,297"," 7,323"," 2,847"," 8,898","2,016","26,361"," 1,795"," 69,306","10,694","49.01","50.99","100","28.86","17.00","17.80","34.80","3.62","2.76","6.39","15.68","1.23","1.71","10.78","3.23","1.58","1.28","2.67","2.64"," 3.86"," 6.50"," 2.47","0.96","3.00","0.68"," 8.88"," 0.60","23.34","3.60"
"47","Hailstorms","High","MAYUGE","186,059","199,184","385,243","128,499","47,039","36,239"," 83,278"," 8,023"," 5,143","13,166","47,797","3,519"," 4,426","56,646"," 4,529"," 6,285"," 4,888"," 6,052","21,236","40,149","61,385","18,463"," 9,800"," 9,487","1,330","44,753","12,202"," 76,212","11,956","48.30","51.70","100","33.36","12.21"," 9.41","21.62","2.08","1.34","3.42","12.41","0.91","1.15","14.70","1.18","1.63","1.27","1.57","5.51","10.42","15.93"," 4.79","2.54","2.46","0.35","11.62"," 3.17","19.78","3.10"
"48","Hailstorms","High","MBALE","226,804","247,602","474,406","136,572","69,653","64,744","134,397","19,028","14,526","33,554","56,474","3,315"," 9,546","60,716","10,062"," 9,715"," 6,289","10,592","24,336","39,897","64,233"," 8,311"," 2,814","15,126","1,621","69,610"," 3,049","100,338","25,698","47.81","52.19","100","28.79","14.68","13.65","28.33","4.01","3.06","7.07","11.90","0.70","2.01","12.80","2.12","2.05","1.33","2.23","5.13"," 8.41","13.54"," 1.75","0.59","3.19","0.34","14.67"," 0.64","21.15","5.42"
"49","Hailstorms","High","MBARARA","220,185","231,732","451,917","120,816","78,755","75,331","154,086","21,123","15,139","36,262","64,755","1,218"," 9,765","55,770"," 9,182"," 6,995"," 5,906","10,005","13,919","26,079","39,998","15,951"," 6,627","13,020","2,032","59,053"," 2,203","102,043","15,117","48.72","51.28","100","26.73","17.43","16.67","34.10","4.67","3.35","8.02","14.33","0.27","2.16","12.34","2.03","1.55","1.31","2.21","3.08"," 5.77"," 8.85"," 3.53","1.47","2.88","0.45","13.07"," 0.49","22.58","3.35"
"50","Hailstorms","High","MITOOMA"," 86,484"," 96,960","183,444"," 55,653","22,418","23,053"," 45,471"," 4,412"," 3,159"," 7,571","27,970","  237"," 1,690","32,482"," 3,580"," 5,240"," 3,246"," 7,031"," 6,788","14,376","21,164","10,883"," 4,299"," 7,283","1,047","31,482"," 2,249"," 39,290"," 5,521","47.14","52.86","100","30.34","12.22","12.57","24.79","2.41","1.72","4.13","15.25","0.13","0.92","17.71","1.95","2.86","1.77","3.83","3.70"," 7.84","11.54"," 5.93","2.34","3.97","0.57","17.16"," 1.23","21.42","3.01"
"51","Hailstorms","High","MITYANA","111,205","110,305","221,510"," 65,077","36,947","34,342"," 71,289"," 5,357"," 3,514"," 8,871","35,760","1,093"," 3,223","32,062"," 6,297"," 4,033"," 3,147"," 7,176"," 8,141","11,716","19,857"," 8,491"," 2,293"," 7,600","1,559","26,458"," 1,367"," 50,679"," 7,116","50.20","49.80","100","29.38","16.68","15.50","32.18","2.42","1.59","4.00","16.14","0.49","1.46","14.47","2.84","1.82","1.42","3.24","3.68"," 5.29"," 8.96"," 3.83","1.04","3.43","0.70","11.94"," 0.62","22.88","3.21"
"52","Hailstorms","High","MPIGI"," 32,041"," 32,352"," 64,393"," 20,251"," 9,452"," 8,882"," 18,334"," 1,038","   687"," 1,725","10,169","  881","   671"," 9,999"," 1,992"," 1,115","   657"," 1,726"," 2,051"," 3,216"," 5,267"," 1,705","   529"," 2,106","  454"," 6,978","   452"," 14,473"," 2,053","49.76","50.24","100","31.45","14.68","13.79","28.47","1.61","1.07","2.68","15.79","1.37","1.04","15.53","3.09","1.73","1.02","2.68","3.19"," 4.99"," 8.18"," 2.65","0.82","3.27","0.71","10.84"," 0.70","22.48","3.19"
"53","Hailstorms","High","MUBENDE","177,179","168,475","345,654","108,823","48,638","34,155"," 82,793"," 4,650"," 2,503"," 7,153","51,863","1,244"," 3,344","62,241"," 7,967"," 7,589"," 6,020"," 8,490","19,156","28,293","47,449","27,409","15,718"," 8,498","1,620","50,216"," 8,742"," 73,061"," 5,969","51.26","48.74","100","31.48","14.07"," 9.88","23.95","1.35","0.72","2.07","15.00","0.36","0.97","18.01","2.30","2.20","1.74","2.46","5.54"," 8.19","13.73"," 7.93","4.55","2.46","0.47","14.53"," 2.53","21.14","1.73"
"54","Hailstorms","High","MUKONO"," 61,728"," 60,403","122,131"," 35,103","22,595","20,984"," 43,579"," 4,046"," 2,782"," 6,828","19,944","2,844"," 2,731","15,381"," 4,629"," 2,431"," 2,330"," 3,139"," 4,953"," 6,658","11,611"," 3,766"," 2,582"," 3,402","  736","14,481"," 3,353"," 31,364"," 5,163","50.54","49.46","100","28.74","18.50","17.18","35.68","3.31","2.28","5.59","16.33","2.33","2.24","12.59","3.79","1.99","1.91","2.57","4.06"," 5.45"," 9.51"," 3.08","2.11","2.79","0.60","11.86"," 2.75","25.68","4.23"
"55","Hailstorms","High","NAKASEKE","  4,588","  3,265","  7,853","  1,924"," 1,509"," 1,101","  2,610","   236","   123","   359","   842","    6","    96","   817","   162","    81","   128","   171","   725","   747"," 1,472","   984","   602","   232","   34","   429","   494","  1,057","   330","58.42","41.58","100","24.50","19.22","14.02","33.24","3.01","1.57","4.57","10.72","0.08","1.22","10.40","2.06","1.03","1.63","2.18","9.23"," 9.51","18.74","12.53","7.67","2.95","0.43"," 5.46"," 6.29","13.46","4.20"
"56","Hailstorms","High","NAMAYINGO"," 13,199"," 13,563"," 26,762","  9,051"," 2,846"," 1,657","  4,503","   216","   117","   333"," 3,010","  270","    64"," 4,897","   438","   505","   367","   656"," 1,614"," 3,205"," 4,819","   645","   132","   759","   91"," 1,079"," 3,749","  5,270","   463","49.32","50.68","100","33.82","10.63"," 6.19","16.83","0.81","0.44","1.24","11.25","1.01","0.24","18.30","1.64","1.89","1.37","2.45","6.03","11.98","18.01"," 2.41","0.49","2.84","0.34"," 4.03","14.01","19.69","1.73"
"57","Hailstorms","High","NAMISINDWA"," 97,474","100,396","197,870"," 66,112","21,006","14,150"," 35,156"," 3,724"," 1,960"," 5,684","25,007","1,279"," 1,260","34,956"," 2,963","16,176"," 7,499"," 7,100","10,435","17,215","27,650"," 6,715"," 3,041"," 6,891","  468","32,784"," 4,584"," 40,340"," 2,953","49.26","50.74","100","33.41","10.62"," 7.15","17.77","1.88","0.99","2.87","12.64","0.65","0.64","17.67","1.50","8.18","3.79","3.59","5.27"," 8.70","13.97"," 3.39","1.54","3.48","0.24","16.57"," 2.32","20.39","1.49"
"58","Hailstorms","High","NAMUTUMBA","123,911","128,646","252,557"," 87,427","25,783","14,492"," 40,275"," 2,706"," 1,467"," 4,173","27,313","1,391"," 1,370","39,231"," 2,119"," 7,560"," 4,665"," 7,377","14,102","26,447","40,549","10,366"," 4,312"," 7,940","  789","25,216"," 8,811"," 44,971"," 5,277","49.06","50.94","100","34.62","10.21"," 5.74","15.95","1.07","0.58","1.65","10.81","0.55","0.54","15.53","0.84","2.99","1.85","2.92","5.58","10.47","16.06"," 4.10","1.71","3.14","0.31"," 9.98"," 3.49","17.81","2.09"
"59","Hailstorms","High","NTOROKO"," 34,038"," 32,967"," 67,005"," 20,995","10,418"," 7,550"," 17,968"," 1,935","   727"," 2,662"," 7,902","  295"," 1,145"," 7,049"," 1,226"," 1,364"," 1,304"," 1,496"," 4,570"," 7,231","11,801"," 5,029"," 2,021"," 1,632","  284"," 9,987"," 2,970"," 13,827"," 2,805","50.80","49.20","100","31.33","15.55","11.27","26.82","2.89","1.08","3.97","11.79","0.44","1.71","10.52","1.83","2.04","1.95","2.23","6.82","10.79","17.61"," 7.51","3.02","2.44","0.42","14.90"," 4.43","20.64","4.19"
"60","Hailstorms","High","NTUNGAMO","165,902","179,374","345,276","106,973","43,779","36,844"," 80,623"," 6,564"," 3,511","10,075","50,765","1,669"," 2,435","60,006"," 7,457"," 7,264"," 4,925"," 9,445","14,772","29,827","44,599","23,211"," 6,568","11,122","1,702","60,053"," 4,317"," 70,854"," 6,870","48.05","51.95","100","30.98","12.68","10.67","23.35","1.90","1.02","2.92","14.70","0.48","0.71","17.38","2.16","2.10","1.43","2.74","4.28"," 8.64","12.92"," 6.72","1.90","3.22","0.49","17.39"," 1.25","20.52","1.99"
"61","Hailstorms","High","PALLISA","102,965","108,548","211,513"," 70,880","19,425","10,307"," 29,732"," 3,305"," 1,787"," 5,092","17,968","1,407"," 2,043","30,710"," 1,881"," 7,668"," 3,894"," 5,714","12,275","23,767","36,042"," 6,350","   941"," 6,637","  399","15,715","12,452"," 35,444"," 5,325","48.68","51.32","100","33.51"," 9.18"," 4.87","14.06","1.56","0.84","2.41"," 8.49","0.67","0.97","14.52","0.89","3.63","1.84","2.70","5.80","11.24","17.04"," 3.00","0.44","3.14","0.19"," 7.43"," 5.89","16.76","2.52"
"62","Hailstorms","High","RAKAI","143,580","147,851","291,431"," 95,650","37,559","30,648"," 68,207"," 3,613"," 2,104"," 5,717","43,474","3,770"," 2,548","51,296"," 5,409"," 5,341"," 3,373"," 7,027","14,464","24,383","38,847","15,177"," 7,271"," 8,586","1,563","41,938"," 6,449"," 62,284"," 4,756","49.27","50.73","100","32.82","12.89","10.52","23.40","1.24","0.72","1.96","14.92","1.29","0.87","17.60","1.86","1.83","1.16","2.41","4.96"," 8.37","13.33"," 5.21","2.49","2.95","0.54","14.39"," 2.21","21.37","1.63"
"63","Hailstorms","High","RUBANDA"," 35,748"," 41,023"," 76,771"," 22,000"," 9,121"," 7,236"," 16,357"," 1,273","   764"," 2,037","12,666","  484","   303","14,969"," 1,315"," 1,696"," 1,299"," 2,769"," 2,884"," 7,069"," 9,953"," 3,472"," 1,942"," 2,830","  292","15,477","   387"," 16,723"," 1,353","46.56","53.44","100","28.66","11.88"," 9.43","21.31","1.66","1.00","2.65","16.50","0.63","0.39","19.50","1.71","2.21","1.69","3.61","3.76"," 9.21","12.96"," 4.52","2.53","3.69","0.38","20.16"," 0.50","21.78","1.76"
"64","Hailstorms","High","RUBIRIZI"," 12,323"," 14,169"," 26,492","  8,154"," 2,925"," 3,268","  6,193","   686","   547"," 1,233"," 3,907","  157","   249"," 4,963","   447","   600","   452","   945","   988"," 2,441"," 3,429","   321","    97","   959","  184"," 4,822","    95","  5,683","   126","46.52","53.48","100","30.78","11.04","12.34","23.38","2.59","2.06","4.65","14.75","0.59","0.94","18.73","1.69","2.26","1.71","3.57","3.73"," 9.21","12.94"," 1.21","0.37","3.62","0.69","18.20"," 0.36","21.45","0.48"
"65","Hailstorms","High","RUKIGA"," 46,377"," 50,635"," 97,012"," 26,667","12,516","10,555"," 23,071"," 1,877"," 1,057"," 2,934","15,899","  632","   612","19,119"," 1,585"," 2,341"," 1,721"," 4,284"," 3,939"," 7,986","11,925"," 2,857"," 1,724"," 4,162","  513","19,875","   454"," 21,636"," 1,597","47.81","52.19","100","27.49","12.90","10.88","23.78","1.93","1.09","3.02","16.39","0.65","0.63","19.71","1.63","2.41","1.77","4.42","4.06"," 8.23","12.29"," 2.94","1.78","4.29","0.53","20.49"," 0.47","22.30","1.65"
"66","Hailstorms","High","RUKUNGIRI","113,231","122,447","235,678"," 65,677","33,144","32,683"," 65,827"," 5,709"," 3,542"," 9,251","39,175","  637"," 2,221","38,756"," 4,198"," 4,564"," 3,023"," 8,393"," 8,062","15,685","23,747"," 4,830"," 2,788"," 9,808","1,853","43,126"," 2,133"," 51,254"," 6,738","48.04","51.96","100","27.87","14.06","13.87","27.93","2.42","1.50","3.93","16.62","0.27","0.94","16.44","1.78","1.94","1.28","3.56","3.42"," 6.66","10.08"," 2.05","1.18","4.16","0.79","18.30"," 0.91","21.75","2.86"
"67","Hailstorms","High","SHEEMA"," 38,991"," 42,623"," 81,614"," 21,255","11,801","11,985"," 23,786"," 1,830"," 1,167"," 2,997","13,636","  242","   832","13,860"," 1,318"," 1,491"," 1,056"," 2,668"," 2,703"," 5,475"," 8,178"," 2,875","   375"," 3,502","  451","14,174","   334"," 17,781"," 2,373","47.77","52.23","100","26.04","14.46","14.68","29.14","2.24","1.43","3.67","16.71","0.30","1.02","16.98","1.61","1.83","1.29","3.27","3.31"," 6.71","10.02"," 3.52","0.46","4.29","0.55","17.37"," 0.41","21.79","2.91"
"68","Hailstorms","High","SIRONKO"," 83,716"," 83,569","167,285"," 48,674","20,069","14,780"," 34,849"," 3,182"," 1,786"," 4,968","23,159","1,379"," 1,760","32,604"," 4,669"," 8,406"," 4,442"," 8,470","11,104","16,443","27,547"," 1,571","   216"," 7,653","  704","33,108"," 1,323"," 38,279"," 2,787","50.04","49.96","100","29.10","12.00"," 8.84","20.83","1.90","1.07","2.97","13.84","0.82","1.05","19.49","2.79","5.02","2.66","5.06","6.64"," 9.83","16.47"," 0.94","0.13","4.57","0.42","19.79"," 0.79","22.88","1.67"
"69","Hailstorms","High","SSEMBABULE","126,084","126,513","252,597"," 80,433","34,828","28,393"," 63,221"," 3,503"," 1,902"," 5,405","40,685","2,371"," 2,148","44,779"," 7,466"," 5,950"," 4,171"," 6,924","14,569","20,790","35,359","14,032"," 3,520"," 7,390","1,342","31,361"," 6,813"," 54,277"," 1,762","49.92","50.08","100","31.84","13.79","11.24","25.03","1.39","0.75","2.14","16.11","0.94","0.85","17.73","2.96","2.36","1.65","2.74","5.77"," 8.23","14.00"," 5.56","1.39","2.93","0.53","12.42"," 2.70","21.49","0.70"
"70","Hailstorms","High","TORORO","250,830","266,250","517,080","159,573","56,928","40,628"," 97,556","12,877"," 7,238","20,115","49,096","4,813","10,172","81,206"," 6,437","19,028","11,170","15,038","29,584","59,886","89,470","14,186"," 7,697","17,213","2,082","47,372","32,560"," 99,893","13,112","48.51","51.49","100","30.86","11.01"," 7.86","18.87","2.49","1.40","3.89"," 9.49","0.93","1.97","15.70","1.24","3.68","2.16","2.91","5.72","11.58","17.30"," 2.74","1.49","3.33","0.40"," 9.16"," 6.30","19.32","2.54"
