"","Event","Impact","Male","Female","Total","male.phn","female.phn","total.phn","male.www","female.www","total.www","radio.inf","com.ann.inf","tel.inf","subs.ag","two.meals","child.pwd","youth.pwd","old.pwd","male.lit","female.lit","total.lit","hlth.dist","prisch.dist","elderly","orphans","semiperm_housing","temp_housing","dwelling","neet","Male.pc","Female.pc","Total.pc","male.phn.pc","female.phn.pc","total.phn.pc","male.www.pc","female.www.pc","total.www.pc","radio.inf.pc","com.ann.inf.pc","tel.inf.pc","subs.ag.pc","two.meals.pc","child.pwd.pc","youth.pwd.pc","old.pwd.pc","male.lit.pc","female.lit.pc","total.lit.pc","hlth.dist.pc","prisch.dist.pc","elderly.pc","orphans.pc","semiperm_housing.pc","temp_housing.pc","dwelling.pc","neet.pc"
"1","Drought","High","2,711,300","2,828,926","5,540,226","555,803","345,960","901,763","140,558","65,260","205,818","459,331","93,017","80,585","849,069","177,507","213,537","120,601","147,744","297,889","663,672","961,561","310,776","129,412","165,226","33,285","334,275","610,266","1,034,342","160,707","48.94","51.06","100","10.03","6.24","16.28","2.54","1.18","3.71","8.29","1.68","1.45","15.33","3.20","3.85","2.18","2.67"," 5.38","11.98","17.36","5.61","2.34","2.98","0.60","6.03","11.02","18.67","2.90"
"2","Drought","Very High","  339,279","  372,993","  712,272"," 31,232"," 16,933"," 48,165"," 11,112"," 6,557"," 17,669"," 11,806","22,926"," 4,170"," 88,769"," 50,648"," 14,169","  8,455"," 13,734"," 92,989","142,367","235,356"," 42,848"," 27,637"," 17,665"," 4,790"," 21,626"," 92,792","  118,944"," 54,455","47.63","52.37","100"," 4.38","2.38"," 6.76","1.56","0.92","2.48","1.66","3.22","0.59","12.46","7.11","1.99","1.19","1.93","13.06","19.99","33.04","6.02","3.88","2.48","0.67","3.04","13.03","16.70","7.65"
