"","District","Rank","Subcounty","Male","Female","Total"
"3","ARUA","25","19","51968","56296","108264"
"4","HOIMA","24","7","33414","32131","65544"
"2","AMURU","20","5","18257","19082","37339"
"9","KIRUHURA","19","14","27601","27320","54922"
"7","KASESE","17","13","33414","34801","68215"
"11","NAKAPIRIPIRIT","14","7","14571","16023","30592"
"8","KATAKWI","12","9","15581","16114","31695"
"14","TORORO","7","9","24552","25742","50294"
"10","MBALE","6","11","25306","27976","53281"
"12","NAPAK","5","8","13104","15341","28445"
"6","KAKUMIRO","4","10","27911","27694","55606"
"1","AMURIA","3","9","16112","16883","32996"
"5","KAABONG","2","13","14633","16301","30935"
"13","RUKUNGIRI","2","4","12174","13288","25461"
"15","Total","Flood","138","328598","344992","673589"
