"","District","Male","Female","Total"
"1","AMURIA","132521","138407","270928"
"2","AMURU","91284","95412","186696"
"3","ARUA","353985","384514","738499"
"4","BUDUDA","105820","104353","210173"
"5","BULAMBULI","86108","88405","174513"
"6","BUNDIBUGYO","108435","115952","224387"
"7","HOIMA","287906","285080","572986"
"8","KAABONG","79207","88672","167879"
"9","KABALE","104006","114117","218123"
"10","KAKUMIRO","147157","145951","293108"
"11","KANUNGU","117528","127193","244721"
"12","KASESE","338215","356772","694987"
"13","KATAKWI","81673","84558","166231"
"14","KIRUHURA","166214","161863","328077"
"15","KISORO","126055","155650","281705"
"16","KITGUM","99258","104790","204048"
"17","KOTIDO","86169","94881","181050"
"18","MBALE","226804","247602","474406"
"19","MUBENDE","342636","333731","676367"
"20","NAKAPIRIPIRIT","74578","82112","156690"
"21","NAMUTUMBA","123911","128646","252557"
"22","NAPAK","65518","76706","142224"
"23","RUKUNGIRI","150016","164678","314694"
"24","SIRONKO","120862","121559","242421"
"25","TORORO","250830","266250","517080"
"26","Total","3866696","4067854","7934550"
