"District","Physical","Social","Economic","Environmental","Rank"
"ARUA",NA,10,10,14.45,44
"HOIMA",NA,9.5,9.5,15.3,43
"AMURU",NA,8.5,8.5,13.6,42
"NAKAPIRIPIRIT",NA,6.5,4.5,16.15,41
"KASESE",12.75,0.5,6.5,5.95,40
"AMURIA",17,5.5,1.5,NA,39
"KIRUHURA",NA,7,6,10.2,38
"KATAKWI",16.15,6,0.5,NA,37
"NAPAK",NA,4.5,1,17,36
"KAKUMIRO",NA,1,7,12.75,35
"KAYUNGA",NA,9,9,NA,34
"KAMWENGE",5.1,2,2,6.8,33
"APAC",NA,8,7.5,NA,32
"KAMULI",NA,7.5,8,NA,32
"BUTALEJA",15.3,NA,NA,NA,30
"BULAMBULI",14.45,NA,NA,NA,29
"KAMPALA",13.6,NA,NA,NA,28
"NWOYA",NA,5,NA,8.5,27
"MASINDI",NA,NA,NA,11.9,26
"NEBBI",11.9,NA,NA,NA,26
"KISORO",11.05,NA,NA,NA,24
"KITGUM",NA,NA,NA,11.05,24
"SIRONKO",10.2,NA,NA,0.85,24
"MUKONO",NA,3,2.5,4.25,21
"KIRYANDONGO",NA,1.5,5.5,2.55,20
"ADJUMANI",NA,NA,NA,9.35,19
"MASAKA",9.35,NA,NA,NA,19
"BUYENDE",NA,3.5,5,NA,17
"MBALE",8.5,NA,NA,NA,17
"NTOROKO",6.8,NA,NA,1.7,17
"OYAM",NA,4,4,NA,14
"MOYO",7.65,NA,NA,NA,13
"RUKUNGIRI",NA,NA,NA,7.65,13
"ZOMBO",6.8,NA,NA,NA,11
"KABAROLE",NA,NA,NA,5.1,10
"IGANGA",4.25,NA,NA,NA,9
"OTUKE",4.25,NA,NA,NA,9
"LWENGO",NA,NA,3.5,NA,7
"KAABONG",NA,NA,NA,3.4,6
"TORORO",NA,NA,3,NA,5
"KUMI",2.55,NA,NA,NA,4
"YUMBE",NA,2.5,NA,NA,3
"SERERE",1.7,NA,NA,NA,2
"NTUNGAMO",0.85,NA,NA,NA,1
